%YAML 1.1
%TAG !u! tag:unity3d.com,2011:
--- !u!114 &11400000
MonoBehaviour:
  m_ObjectHideFlags: 0
  m_PrefabParentObject: {fileID: 0}
  m_PrefabInternal: {fileID: 0}
  m_GameObject: {fileID: 0}
  m_Enabled: 1
  m_EditorHideFlags: 0
  m_Script: {fileID: 11500000, guid: 55b78d6060eadde4394ed1d0ba2b8c97, type: 3}
  m_Name: BuildingRenderData
  m_EditorClassIdentifier: 
  editMode: 3
  brushColor: {r: 1, g: 1, b: 1, a: 1}
  brushRadius: 1
  blendStrength: 1
  blendMode: 0
  brushDisplayScale: 2
  defaultBrush:
    name: 
    type: 0
    paintMode: 0
    tiles:
    - x: 0
      y: 0
      layer: 0
      spriteId: 0
      blendAmount: 0
    multiSelectTiles: 
    edgeMode: 0
    multiLayer: 0
    overrideWithSpriteBounds: 0
    brushHash: -2086395904
  activeBrush:
    name: 
    type: 0
    paintMode: 0
    tiles:
    - x: 0
      y: 0
      layer: 0
      spriteId: 701
      blendAmount: 0
    multiSelectTiles: bd020000
    edgeMode: 0
    multiLayer: 0
    overrideWithSpriteBounds: 0
    brushHash: -893943872
  brushes: []
  paletteBrush:
    name: 
    type: 0
    paintMode: 0
    tiles:
    - x: 0
      y: 112
      layer: 0
      spriteId: 0
      blendAmount: 0
    - x: 1
      y: 112
      layer: 0
      spriteId: 1
      blendAmount: 0
    - x: 2
      y: 112
      layer: 0
      spriteId: 2
      blendAmount: 0
    - x: 3
      y: 112
      layer: 0
      spriteId: 3
      blendAmount: 0
    - x: 4
      y: 112
      layer: 0
      spriteId: 4
      blendAmount: 0
    - x: 5
      y: 112
      layer: 0
      spriteId: 5
      blendAmount: 0
    - x: 6
      y: 112
      layer: 0
      spriteId: 6
      blendAmount: 0
    - x: 7
      y: 112
      layer: 0
      spriteId: 7
      blendAmount: 0
    - x: 0
      y: 111
      layer: 0
      spriteId: 8
      blendAmount: 0
    - x: 1
      y: 111
      layer: 0
      spriteId: 9
      blendAmount: 0
    - x: 2
      y: 111
      layer: 0
      spriteId: 10
      blendAmount: 0
    - x: 3
      y: 111
      layer: 0
      spriteId: 11
      blendAmount: 0
    - x: 4
      y: 111
      layer: 0
      spriteId: 12
      blendAmount: 0
    - x: 5
      y: 111
      layer: 0
      spriteId: 13
      blendAmount: 0
    - x: 6
      y: 111
      layer: 0
      spriteId: 14
      blendAmount: 0
    - x: 7
      y: 111
      layer: 0
      spriteId: 15
      blendAmount: 0
    - x: 0
      y: 110
      layer: 0
      spriteId: 16
      blendAmount: 0
    - x: 1
      y: 110
      layer: 0
      spriteId: 17
      blendAmount: 0
    - x: 2
      y: 110
      layer: 0
      spriteId: 18
      blendAmount: 0
    - x: 3
      y: 110
      layer: 0
      spriteId: 19
      blendAmount: 0
    - x: 4
      y: 110
      layer: 0
      spriteId: 20
      blendAmount: 0
    - x: 5
      y: 110
      layer: 0
      spriteId: 21
      blendAmount: 0
    - x: 6
      y: 110
      layer: 0
      spriteId: 22
      blendAmount: 0
    - x: 7
      y: 110
      layer: 0
      spriteId: 23
      blendAmount: 0
    - x: 0
      y: 109
      layer: 0
      spriteId: 24
      blendAmount: 0
    - x: 1
      y: 109
      layer: 0
      spriteId: 25
      blendAmount: 0
    - x: 2
      y: 109
      layer: 0
      spriteId: 26
      blendAmount: 0
    - x: 3
      y: 109
      layer: 0
      spriteId: 27
      blendAmount: 0
    - x: 4
      y: 109
      layer: 0
      spriteId: 28
      blendAmount: 0
    - x: 5
      y: 109
      layer: 0
      spriteId: 29
      blendAmount: 0
    - x: 6
      y: 109
      layer: 0
      spriteId: 30
      blendAmount: 0
    - x: 7
      y: 109
      layer: 0
      spriteId: 31
      blendAmount: 0
    - x: 0
      y: 108
      layer: 0
      spriteId: 32
      blendAmount: 0
    - x: 1
      y: 108
      layer: 0
      spriteId: 33
      blendAmount: 0
    - x: 2
      y: 108
      layer: 0
      spriteId: 34
      blendAmount: 0
    - x: 3
      y: 108
      layer: 0
      spriteId: 35
      blendAmount: 0
    - x: 4
      y: 108
      layer: 0
      spriteId: 36
      blendAmount: 0
    - x: 5
      y: 108
      layer: 0
      spriteId: 37
      blendAmount: 0
    - x: 6
      y: 108
      layer: 0
      spriteId: 38
      blendAmount: 0
    - x: 7
      y: 108
      layer: 0
      spriteId: 39
      blendAmount: 0
    - x: 0
      y: 107
      layer: 0
      spriteId: 40
      blendAmount: 0
    - x: 1
      y: 107
      layer: 0
      spriteId: 41
      blendAmount: 0
    - x: 2
      y: 107
      layer: 0
      spriteId: 42
      blendAmount: 0
    - x: 3
      y: 107
      layer: 0
      spriteId: 43
      blendAmount: 0
    - x: 4
      y: 107
      layer: 0
      spriteId: 44
      blendAmount: 0
    - x: 5
      y: 107
      layer: 0
      spriteId: 45
      blendAmount: 0
    - x: 6
      y: 107
      layer: 0
      spriteId: 46
      blendAmount: 0
    - x: 7
      y: 107
      layer: 0
      spriteId: 47
      blendAmount: 0
    - x: 0
      y: 106
      layer: 0
      spriteId: 48
      blendAmount: 0
    - x: 1
      y: 106
      layer: 0
      spriteId: 49
      blendAmount: 0
    - x: 2
      y: 106
      layer: 0
      spriteId: 50
      blendAmount: 0
    - x: 3
      y: 106
      layer: 0
      spriteId: 51
      blendAmount: 0
    - x: 4
      y: 106
      layer: 0
      spriteId: 52
      blendAmount: 0
    - x: 5
      y: 106
      layer: 0
      spriteId: 53
      blendAmount: 0
    - x: 6
      y: 106
      layer: 0
      spriteId: 54
      blendAmount: 0
    - x: 7
      y: 106
      layer: 0
      spriteId: 55
      blendAmount: 0
    - x: 0
      y: 105
      layer: 0
      spriteId: 56
      blendAmount: 0
    - x: 1
      y: 105
      layer: 0
      spriteId: 57
      blendAmount: 0
    - x: 2
      y: 105
      layer: 0
      spriteId: 58
      blendAmount: 0
    - x: 3
      y: 105
      layer: 0
      spriteId: 59
      blendAmount: 0
    - x: 4
      y: 105
      layer: 0
      spriteId: 60
      blendAmount: 0
    - x: 5
      y: 105
      layer: 0
      spriteId: 61
      blendAmount: 0
    - x: 6
      y: 105
      layer: 0
      spriteId: 62
      blendAmount: 0
    - x: 7
      y: 105
      layer: 0
      spriteId: 63
      blendAmount: 0
    - x: 0
      y: 104
      layer: 0
      spriteId: 64
      blendAmount: 0
    - x: 1
      y: 104
      layer: 0
      spriteId: 65
      blendAmount: 0
    - x: 2
      y: 104
      layer: 0
      spriteId: 66
      blendAmount: 0
    - x: 3
      y: 104
      layer: 0
      spriteId: 67
      blendAmount: 0
    - x: 4
      y: 104
      layer: 0
      spriteId: 68
      blendAmount: 0
    - x: 5
      y: 104
      layer: 0
      spriteId: 69
      blendAmount: 0
    - x: 6
      y: 104
      layer: 0
      spriteId: 70
      blendAmount: 0
    - x: 7
      y: 104
      layer: 0
      spriteId: 71
      blendAmount: 0
    - x: 0
      y: 103
      layer: 0
      spriteId: 72
      blendAmount: 0
    - x: 1
      y: 103
      layer: 0
      spriteId: 73
      blendAmount: 0
    - x: 2
      y: 103
      layer: 0
      spriteId: 74
      blendAmount: 0
    - x: 3
      y: 103
      layer: 0
      spriteId: 75
      blendAmount: 0
    - x: 4
      y: 103
      layer: 0
      spriteId: 76
      blendAmount: 0
    - x: 5
      y: 103
      layer: 0
      spriteId: 77
      blendAmount: 0
    - x: 6
      y: 103
      layer: 0
      spriteId: 78
      blendAmount: 0
    - x: 7
      y: 103
      layer: 0
      spriteId: 79
      blendAmount: 0
    - x: 0
      y: 102
      layer: 0
      spriteId: 80
      blendAmount: 0
    - x: 1
      y: 102
      layer: 0
      spriteId: 81
      blendAmount: 0
    - x: 2
      y: 102
      layer: 0
      spriteId: 82
      blendAmount: 0
    - x: 3
      y: 102
      layer: 0
      spriteId: 83
      blendAmount: 0
    - x: 4
      y: 102
      layer: 0
      spriteId: 84
      blendAmount: 0
    - x: 5
      y: 102
      layer: 0
      spriteId: 85
      blendAmount: 0
    - x: 6
      y: 102
      layer: 0
      spriteId: 86
      blendAmount: 0
    - x: 7
      y: 102
      layer: 0
      spriteId: 87
      blendAmount: 0
    - x: 0
      y: 101
      layer: 0
      spriteId: 88
      blendAmount: 0
    - x: 1
      y: 101
      layer: 0
      spriteId: 89
      blendAmount: 0
    - x: 2
      y: 101
      layer: 0
      spriteId: 90
      blendAmount: 0
    - x: 3
      y: 101
      layer: 0
      spriteId: 91
      blendAmount: 0
    - x: 4
      y: 101
      layer: 0
      spriteId: 92
      blendAmount: 0
    - x: 5
      y: 101
      layer: 0
      spriteId: 93
      blendAmount: 0
    - x: 6
      y: 101
      layer: 0
      spriteId: 94
      blendAmount: 0
    - x: 7
      y: 101
      layer: 0
      spriteId: 95
      blendAmount: 0
    - x: 0
      y: 100
      layer: 0
      spriteId: 96
      blendAmount: 0
    - x: 1
      y: 100
      layer: 0
      spriteId: 97
      blendAmount: 0
    - x: 2
      y: 100
      layer: 0
      spriteId: 98
      blendAmount: 0
    - x: 3
      y: 100
      layer: 0
      spriteId: 99
      blendAmount: 0
    - x: 4
      y: 100
      layer: 0
      spriteId: 100
      blendAmount: 0
    - x: 5
      y: 100
      layer: 0
      spriteId: 101
      blendAmount: 0
    - x: 6
      y: 100
      layer: 0
      spriteId: 102
      blendAmount: 0
    - x: 7
      y: 100
      layer: 0
      spriteId: 103
      blendAmount: 0
    - x: 0
      y: 99
      layer: 0
      spriteId: 104
      blendAmount: 0
    - x: 1
      y: 99
      layer: 0
      spriteId: 105
      blendAmount: 0
    - x: 2
      y: 99
      layer: 0
      spriteId: 106
      blendAmount: 0
    - x: 3
      y: 99
      layer: 0
      spriteId: 107
      blendAmount: 0
    - x: 4
      y: 99
      layer: 0
      spriteId: 108
      blendAmount: 0
    - x: 5
      y: 99
      layer: 0
      spriteId: 109
      blendAmount: 0
    - x: 6
      y: 99
      layer: 0
      spriteId: 110
      blendAmount: 0
    - x: 7
      y: 99
      layer: 0
      spriteId: 111
      blendAmount: 0
    - x: 0
      y: 98
      layer: 0
      spriteId: 112
      blendAmount: 0
    - x: 1
      y: 98
      layer: 0
      spriteId: 113
      blendAmount: 0
    - x: 2
      y: 98
      layer: 0
      spriteId: 114
      blendAmount: 0
    - x: 3
      y: 98
      layer: 0
      spriteId: 115
      blendAmount: 0
    - x: 4
      y: 98
      layer: 0
      spriteId: 116
      blendAmount: 0
    - x: 5
      y: 98
      layer: 0
      spriteId: 117
      blendAmount: 0
    - x: 6
      y: 98
      layer: 0
      spriteId: 118
      blendAmount: 0
    - x: 7
      y: 98
      layer: 0
      spriteId: 119
      blendAmount: 0
    - x: 0
      y: 97
      layer: 0
      spriteId: 120
      blendAmount: 0
    - x: 1
      y: 97
      layer: 0
      spriteId: 121
      blendAmount: 0
    - x: 2
      y: 97
      layer: 0
      spriteId: 122
      blendAmount: 0
    - x: 3
      y: 97
      layer: 0
      spriteId: 123
      blendAmount: 0
    - x: 4
      y: 97
      layer: 0
      spriteId: 124
      blendAmount: 0
    - x: 5
      y: 97
      layer: 0
      spriteId: 125
      blendAmount: 0
    - x: 6
      y: 97
      layer: 0
      spriteId: 126
      blendAmount: 0
    - x: 7
      y: 97
      layer: 0
      spriteId: 127
      blendAmount: 0
    - x: 0
      y: 96
      layer: 0
      spriteId: 128
      blendAmount: 0
    - x: 1
      y: 96
      layer: 0
      spriteId: 129
      blendAmount: 0
    - x: 2
      y: 96
      layer: 0
      spriteId: 130
      blendAmount: 0
    - x: 3
      y: 96
      layer: 0
      spriteId: 131
      blendAmount: 0
    - x: 4
      y: 96
      layer: 0
      spriteId: 132
      blendAmount: 0
    - x: 5
      y: 96
      layer: 0
      spriteId: 133
      blendAmount: 0
    - x: 6
      y: 96
      layer: 0
      spriteId: 134
      blendAmount: 0
    - x: 7
      y: 96
      layer: 0
      spriteId: 135
      blendAmount: 0
    - x: 0
      y: 95
      layer: 0
      spriteId: 136
      blendAmount: 0
    - x: 1
      y: 95
      layer: 0
      spriteId: 137
      blendAmount: 0
    - x: 2
      y: 95
      layer: 0
      spriteId: 138
      blendAmount: 0
    - x: 3
      y: 95
      layer: 0
      spriteId: 139
      blendAmount: 0
    - x: 4
      y: 95
      layer: 0
      spriteId: 140
      blendAmount: 0
    - x: 5
      y: 95
      layer: 0
      spriteId: 141
      blendAmount: 0
    - x: 6
      y: 95
      layer: 0
      spriteId: 142
      blendAmount: 0
    - x: 7
      y: 95
      layer: 0
      spriteId: 143
      blendAmount: 0
    - x: 0
      y: 94
      layer: 0
      spriteId: 144
      blendAmount: 0
    - x: 1
      y: 94
      layer: 0
      spriteId: 145
      blendAmount: 0
    - x: 2
      y: 94
      layer: 0
      spriteId: 146
      blendAmount: 0
    - x: 3
      y: 94
      layer: 0
      spriteId: 147
      blendAmount: 0
    - x: 4
      y: 94
      layer: 0
      spriteId: 148
      blendAmount: 0
    - x: 5
      y: 94
      layer: 0
      spriteId: 149
      blendAmount: 0
    - x: 6
      y: 94
      layer: 0
      spriteId: 150
      blendAmount: 0
    - x: 7
      y: 94
      layer: 0
      spriteId: 151
      blendAmount: 0
    - x: 0
      y: 93
      layer: 0
      spriteId: 152
      blendAmount: 0
    - x: 1
      y: 93
      layer: 0
      spriteId: 153
      blendAmount: 0
    - x: 2
      y: 93
      layer: 0
      spriteId: 154
      blendAmount: 0
    - x: 3
      y: 93
      layer: 0
      spriteId: 155
      blendAmount: 0
    - x: 4
      y: 93
      layer: 0
      spriteId: 156
      blendAmount: 0
    - x: 5
      y: 93
      layer: 0
      spriteId: 157
      blendAmount: 0
    - x: 6
      y: 93
      layer: 0
      spriteId: 158
      blendAmount: 0
    - x: 7
      y: 93
      layer: 0
      spriteId: 159
      blendAmount: 0
    - x: 0
      y: 92
      layer: 0
      spriteId: 160
      blendAmount: 0
    - x: 1
      y: 92
      layer: 0
      spriteId: 161
      blendAmount: 0
    - x: 2
      y: 92
      layer: 0
      spriteId: 162
      blendAmount: 0
    - x: 3
      y: 92
      layer: 0
      spriteId: 163
      blendAmount: 0
    - x: 4
      y: 92
      layer: 0
      spriteId: 164
      blendAmount: 0
    - x: 5
      y: 92
      layer: 0
      spriteId: 165
      blendAmount: 0
    - x: 6
      y: 92
      layer: 0
      spriteId: 166
      blendAmount: 0
    - x: 7
      y: 92
      layer: 0
      spriteId: 167
      blendAmount: 0
    - x: 0
      y: 91
      layer: 0
      spriteId: 168
      blendAmount: 0
    - x: 1
      y: 91
      layer: 0
      spriteId: 169
      blendAmount: 0
    - x: 2
      y: 91
      layer: 0
      spriteId: 170
      blendAmount: 0
    - x: 3
      y: 91
      layer: 0
      spriteId: 171
      blendAmount: 0
    - x: 4
      y: 91
      layer: 0
      spriteId: 172
      blendAmount: 0
    - x: 5
      y: 91
      layer: 0
      spriteId: 173
      blendAmount: 0
    - x: 6
      y: 91
      layer: 0
      spriteId: 174
      blendAmount: 0
    - x: 7
      y: 91
      layer: 0
      spriteId: 175
      blendAmount: 0
    - x: 0
      y: 90
      layer: 0
      spriteId: 176
      blendAmount: 0
    - x: 1
      y: 90
      layer: 0
      spriteId: 177
      blendAmount: 0
    - x: 2
      y: 90
      layer: 0
      spriteId: 178
      blendAmount: 0
    - x: 3
      y: 90
      layer: 0
      spriteId: 179
      blendAmount: 0
    - x: 4
      y: 90
      layer: 0
      spriteId: 180
      blendAmount: 0
    - x: 5
      y: 90
      layer: 0
      spriteId: 181
      blendAmount: 0
    - x: 6
      y: 90
      layer: 0
      spriteId: 182
      blendAmount: 0
    - x: 7
      y: 90
      layer: 0
      spriteId: 183
      blendAmount: 0
    - x: 0
      y: 89
      layer: 0
      spriteId: 184
      blendAmount: 0
    - x: 1
      y: 89
      layer: 0
      spriteId: 185
      blendAmount: 0
    - x: 2
      y: 89
      layer: 0
      spriteId: 186
      blendAmount: 0
    - x: 3
      y: 89
      layer: 0
      spriteId: 187
      blendAmount: 0
    - x: 4
      y: 89
      layer: 0
      spriteId: 188
      blendAmount: 0
    - x: 5
      y: 89
      layer: 0
      spriteId: 189
      blendAmount: 0
    - x: 6
      y: 89
      layer: 0
      spriteId: 190
      blendAmount: 0
    - x: 7
      y: 89
      layer: 0
      spriteId: 191
      blendAmount: 0
    - x: 0
      y: 88
      layer: 0
      spriteId: 192
      blendAmount: 0
    - x: 1
      y: 88
      layer: 0
      spriteId: 193
      blendAmount: 0
    - x: 2
      y: 88
      layer: 0
      spriteId: 194
      blendAmount: 0
    - x: 3
      y: 88
      layer: 0
      spriteId: 195
      blendAmount: 0
    - x: 4
      y: 88
      layer: 0
      spriteId: 196
      blendAmount: 0
    - x: 5
      y: 88
      layer: 0
      spriteId: 197
      blendAmount: 0
    - x: 6
      y: 88
      layer: 0
      spriteId: 198
      blendAmount: 0
    - x: 7
      y: 88
      layer: 0
      spriteId: 199
      blendAmount: 0
    - x: 0
      y: 87
      layer: 0
      spriteId: 200
      blendAmount: 0
    - x: 1
      y: 87
      layer: 0
      spriteId: 201
      blendAmount: 0
    - x: 2
      y: 87
      layer: 0
      spriteId: 202
      blendAmount: 0
    - x: 3
      y: 87
      layer: 0
      spriteId: 203
      blendAmount: 0
    - x: 4
      y: 87
      layer: 0
      spriteId: 204
      blendAmount: 0
    - x: 5
      y: 87
      layer: 0
      spriteId: 205
      blendAmount: 0
    - x: 6
      y: 87
      layer: 0
      spriteId: 206
      blendAmount: 0
    - x: 7
      y: 87
      layer: 0
      spriteId: 207
      blendAmount: 0
    - x: 0
      y: 86
      layer: 0
      spriteId: 208
      blendAmount: 0
    - x: 1
      y: 86
      layer: 0
      spriteId: 209
      blendAmount: 0
    - x: 2
      y: 86
      layer: 0
      spriteId: 210
      blendAmount: 0
    - x: 3
      y: 86
      layer: 0
      spriteId: 211
      blendAmount: 0
    - x: 4
      y: 86
      layer: 0
      spriteId: 212
      blendAmount: 0
    - x: 5
      y: 86
      layer: 0
      spriteId: 213
      blendAmount: 0
    - x: 6
      y: 86
      layer: 0
      spriteId: 214
      blendAmount: 0
    - x: 7
      y: 86
      layer: 0
      spriteId: 215
      blendAmount: 0
    - x: 0
      y: 85
      layer: 0
      spriteId: 216
      blendAmount: 0
    - x: 1
      y: 85
      layer: 0
      spriteId: 217
      blendAmount: 0
    - x: 2
      y: 85
      layer: 0
      spriteId: 218
      blendAmount: 0
    - x: 3
      y: 85
      layer: 0
      spriteId: 219
      blendAmount: 0
    - x: 4
      y: 85
      layer: 0
      spriteId: 220
      blendAmount: 0
    - x: 5
      y: 85
      layer: 0
      spriteId: 221
      blendAmount: 0
    - x: 6
      y: 85
      layer: 0
      spriteId: 222
      blendAmount: 0
    - x: 7
      y: 85
      layer: 0
      spriteId: 223
      blendAmount: 0
    - x: 0
      y: 84
      layer: 0
      spriteId: 224
      blendAmount: 0
    - x: 1
      y: 84
      layer: 0
      spriteId: 225
      blendAmount: 0
    - x: 2
      y: 84
      layer: 0
      spriteId: 226
      blendAmount: 0
    - x: 3
      y: 84
      layer: 0
      spriteId: 227
      blendAmount: 0
    - x: 4
      y: 84
      layer: 0
      spriteId: 228
      blendAmount: 0
    - x: 5
      y: 84
      layer: 0
      spriteId: 229
      blendAmount: 0
    - x: 6
      y: 84
      layer: 0
      spriteId: 230
      blendAmount: 0
    - x: 7
      y: 84
      layer: 0
      spriteId: 231
      blendAmount: 0
    - x: 0
      y: 83
      layer: 0
      spriteId: 232
      blendAmount: 0
    - x: 1
      y: 83
      layer: 0
      spriteId: 233
      blendAmount: 0
    - x: 2
      y: 83
      layer: 0
      spriteId: 234
      blendAmount: 0
    - x: 3
      y: 83
      layer: 0
      spriteId: 235
      blendAmount: 0
    - x: 4
      y: 83
      layer: 0
      spriteId: 236
      blendAmount: 0
    - x: 5
      y: 83
      layer: 0
      spriteId: 237
      blendAmount: 0
    - x: 6
      y: 83
      layer: 0
      spriteId: 238
      blendAmount: 0
    - x: 7
      y: 83
      layer: 0
      spriteId: 239
      blendAmount: 0
    - x: 0
      y: 82
      layer: 0
      spriteId: 240
      blendAmount: 0
    - x: 1
      y: 82
      layer: 0
      spriteId: 241
      blendAmount: 0
    - x: 2
      y: 82
      layer: 0
      spriteId: 242
      blendAmount: 0
    - x: 3
      y: 82
      layer: 0
      spriteId: 243
      blendAmount: 0
    - x: 4
      y: 82
      layer: 0
      spriteId: 244
      blendAmount: 0
    - x: 5
      y: 82
      layer: 0
      spriteId: 245
      blendAmount: 0
    - x: 6
      y: 82
      layer: 0
      spriteId: 246
      blendAmount: 0
    - x: 7
      y: 82
      layer: 0
      spriteId: 247
      blendAmount: 0
    - x: 0
      y: 81
      layer: 0
      spriteId: 248
      blendAmount: 0
    - x: 1
      y: 81
      layer: 0
      spriteId: 249
      blendAmount: 0
    - x: 2
      y: 81
      layer: 0
      spriteId: 250
      blendAmount: 0
    - x: 3
      y: 81
      layer: 0
      spriteId: 251
      blendAmount: 0
    - x: 4
      y: 81
      layer: 0
      spriteId: 252
      blendAmount: 0
    - x: 5
      y: 81
      layer: 0
      spriteId: 253
      blendAmount: 0
    - x: 6
      y: 81
      layer: 0
      spriteId: 254
      blendAmount: 0
    - x: 7
      y: 81
      layer: 0
      spriteId: 255
      blendAmount: 0
    - x: 0
      y: 80
      layer: 0
      spriteId: 256
      blendAmount: 0
    - x: 1
      y: 80
      layer: 0
      spriteId: 257
      blendAmount: 0
    - x: 2
      y: 80
      layer: 0
      spriteId: 258
      blendAmount: 0
    - x: 3
      y: 80
      layer: 0
      spriteId: 259
      blendAmount: 0
    - x: 4
      y: 80
      layer: 0
      spriteId: 260
      blendAmount: 0
    - x: 5
      y: 80
      layer: 0
      spriteId: 261
      blendAmount: 0
    - x: 6
      y: 80
      layer: 0
      spriteId: 262
      blendAmount: 0
    - x: 7
      y: 80
      layer: 0
      spriteId: 263
      blendAmount: 0
    - x: 0
      y: 79
      layer: 0
      spriteId: 264
      blendAmount: 0
    - x: 1
      y: 79
      layer: 0
      spriteId: 265
      blendAmount: 0
    - x: 2
      y: 79
      layer: 0
      spriteId: 266
      blendAmount: 0
    - x: 3
      y: 79
      layer: 0
      spriteId: 267
      blendAmount: 0
    - x: 4
      y: 79
      layer: 0
      spriteId: 268
      blendAmount: 0
    - x: 5
      y: 79
      layer: 0
      spriteId: 269
      blendAmount: 0
    - x: 6
      y: 79
      layer: 0
      spriteId: 270
      blendAmount: 0
    - x: 7
      y: 79
      layer: 0
      spriteId: 271
      blendAmount: 0
    - x: 0
      y: 78
      layer: 0
      spriteId: 272
      blendAmount: 0
    - x: 1
      y: 78
      layer: 0
      spriteId: 273
      blendAmount: 0
    - x: 2
      y: 78
      layer: 0
      spriteId: 274
      blendAmount: 0
    - x: 3
      y: 78
      layer: 0
      spriteId: 275
      blendAmount: 0
    - x: 4
      y: 78
      layer: 0
      spriteId: 276
      blendAmount: 0
    - x: 5
      y: 78
      layer: 0
      spriteId: 277
      blendAmount: 0
    - x: 6
      y: 78
      layer: 0
      spriteId: 278
      blendAmount: 0
    - x: 7
      y: 78
      layer: 0
      spriteId: 279
      blendAmount: 0
    - x: 0
      y: 77
      layer: 0
      spriteId: 280
      blendAmount: 0
    - x: 1
      y: 77
      layer: 0
      spriteId: 281
      blendAmount: 0
    - x: 2
      y: 77
      layer: 0
      spriteId: 282
      blendAmount: 0
    - x: 3
      y: 77
      layer: 0
      spriteId: 283
      blendAmount: 0
    - x: 4
      y: 77
      layer: 0
      spriteId: 284
      blendAmount: 0
    - x: 5
      y: 77
      layer: 0
      spriteId: 285
      blendAmount: 0
    - x: 6
      y: 77
      layer: 0
      spriteId: 286
      blendAmount: 0
    - x: 7
      y: 77
      layer: 0
      spriteId: 287
      blendAmount: 0
    - x: 0
      y: 76
      layer: 0
      spriteId: 288
      blendAmount: 0
    - x: 1
      y: 76
      layer: 0
      spriteId: 289
      blendAmount: 0
    - x: 2
      y: 76
      layer: 0
      spriteId: 290
      blendAmount: 0
    - x: 3
      y: 76
      layer: 0
      spriteId: 291
      blendAmount: 0
    - x: 4
      y: 76
      layer: 0
      spriteId: 292
      blendAmount: 0
    - x: 5
      y: 76
      layer: 0
      spriteId: 293
      blendAmount: 0
    - x: 6
      y: 76
      layer: 0
      spriteId: 294
      blendAmount: 0
    - x: 7
      y: 76
      layer: 0
      spriteId: 295
      blendAmount: 0
    - x: 0
      y: 75
      layer: 0
      spriteId: 296
      blendAmount: 0
    - x: 1
      y: 75
      layer: 0
      spriteId: 297
      blendAmount: 0
    - x: 2
      y: 75
      layer: 0
      spriteId: 298
      blendAmount: 0
    - x: 3
      y: 75
      layer: 0
      spriteId: 299
      blendAmount: 0
    - x: 4
      y: 75
      layer: 0
      spriteId: 300
      blendAmount: 0
    - x: 5
      y: 75
      layer: 0
      spriteId: 301
      blendAmount: 0
    - x: 6
      y: 75
      layer: 0
      spriteId: 302
      blendAmount: 0
    - x: 7
      y: 75
      layer: 0
      spriteId: 303
      blendAmount: 0
    - x: 0
      y: 74
      layer: 0
      spriteId: 304
      blendAmount: 0
    - x: 1
      y: 74
      layer: 0
      spriteId: 305
      blendAmount: 0
    - x: 2
      y: 74
      layer: 0
      spriteId: 306
      blendAmount: 0
    - x: 3
      y: 74
      layer: 0
      spriteId: 307
      blendAmount: 0
    - x: 4
      y: 74
      layer: 0
      spriteId: 308
      blendAmount: 0
    - x: 5
      y: 74
      layer: 0
      spriteId: 309
      blendAmount: 0
    - x: 6
      y: 74
      layer: 0
      spriteId: 310
      blendAmount: 0
    - x: 7
      y: 74
      layer: 0
      spriteId: 311
      blendAmount: 0
    - x: 0
      y: 73
      layer: 0
      spriteId: 312
      blendAmount: 0
    - x: 1
      y: 73
      layer: 0
      spriteId: 313
      blendAmount: 0
    - x: 2
      y: 73
      layer: 0
      spriteId: 314
      blendAmount: 0
    - x: 3
      y: 73
      layer: 0
      spriteId: 315
      blendAmount: 0
    - x: 4
      y: 73
      layer: 0
      spriteId: 316
      blendAmount: 0
    - x: 5
      y: 73
      layer: 0
      spriteId: 317
      blendAmount: 0
    - x: 6
      y: 73
      layer: 0
      spriteId: 318
      blendAmount: 0
    - x: 7
      y: 73
      layer: 0
      spriteId: 319
      blendAmount: 0
    - x: 0
      y: 72
      layer: 0
      spriteId: 320
      blendAmount: 0
    - x: 1
      y: 72
      layer: 0
      spriteId: 321
      blendAmount: 0
    - x: 2
      y: 72
      layer: 0
      spriteId: 322
      blendAmount: 0
    - x: 3
      y: 72
      layer: 0
      spriteId: 323
      blendAmount: 0
    - x: 4
      y: 72
      layer: 0
      spriteId: 324
      blendAmount: 0
    - x: 5
      y: 72
      layer: 0
      spriteId: 325
      blendAmount: 0
    - x: 6
      y: 72
      layer: 0
      spriteId: 326
      blendAmount: 0
    - x: 7
      y: 72
      layer: 0
      spriteId: 327
      blendAmount: 0
    - x: 0
      y: 71
      layer: 0
      spriteId: 328
      blendAmount: 0
    - x: 1
      y: 71
      layer: 0
      spriteId: 329
      blendAmount: 0
    - x: 2
      y: 71
      layer: 0
      spriteId: 330
      blendAmount: 0
    - x: 3
      y: 71
      layer: 0
      spriteId: 331
      blendAmount: 0
    - x: 4
      y: 71
      layer: 0
      spriteId: 332
      blendAmount: 0
    - x: 5
      y: 71
      layer: 0
      spriteId: 333
      blendAmount: 0
    - x: 6
      y: 71
      layer: 0
      spriteId: 334
      blendAmount: 0
    - x: 7
      y: 71
      layer: 0
      spriteId: 335
      blendAmount: 0
    - x: 0
      y: 70
      layer: 0
      spriteId: 336
      blendAmount: 0
    - x: 1
      y: 70
      layer: 0
      spriteId: 337
      blendAmount: 0
    - x: 2
      y: 70
      layer: 0
      spriteId: 338
      blendAmount: 0
    - x: 3
      y: 70
      layer: 0
      spriteId: 339
      blendAmount: 0
    - x: 4
      y: 70
      layer: 0
      spriteId: 340
      blendAmount: 0
    - x: 5
      y: 70
      layer: 0
      spriteId: 341
      blendAmount: 0
    - x: 6
      y: 70
      layer: 0
      spriteId: 342
      blendAmount: 0
    - x: 7
      y: 70
      layer: 0
      spriteId: 343
      blendAmount: 0
    - x: 0
      y: 69
      layer: 0
      spriteId: 344
      blendAmount: 0
    - x: 1
      y: 69
      layer: 0
      spriteId: 345
      blendAmount: 0
    - x: 2
      y: 69
      layer: 0
      spriteId: 346
      blendAmount: 0
    - x: 3
      y: 69
      layer: 0
      spriteId: 347
      blendAmount: 0
    - x: 4
      y: 69
      layer: 0
      spriteId: 348
      blendAmount: 0
    - x: 5
      y: 69
      layer: 0
      spriteId: 349
      blendAmount: 0
    - x: 6
      y: 69
      layer: 0
      spriteId: 350
      blendAmount: 0
    - x: 7
      y: 69
      layer: 0
      spriteId: 351
      blendAmount: 0
    - x: 0
      y: 68
      layer: 0
      spriteId: 352
      blendAmount: 0
    - x: 1
      y: 68
      layer: 0
      spriteId: 353
      blendAmount: 0
    - x: 2
      y: 68
      layer: 0
      spriteId: 354
      blendAmount: 0
    - x: 3
      y: 68
      layer: 0
      spriteId: 355
      blendAmount: 0
    - x: 4
      y: 68
      layer: 0
      spriteId: 356
      blendAmount: 0
    - x: 5
      y: 68
      layer: 0
      spriteId: 357
      blendAmount: 0
    - x: 6
      y: 68
      layer: 0
      spriteId: 358
      blendAmount: 0
    - x: 7
      y: 68
      layer: 0
      spriteId: 359
      blendAmount: 0
    - x: 0
      y: 67
      layer: 0
      spriteId: 360
      blendAmount: 0
    - x: 1
      y: 67
      layer: 0
      spriteId: 361
      blendAmount: 0
    - x: 2
      y: 67
      layer: 0
      spriteId: 362
      blendAmount: 0
    - x: 3
      y: 67
      layer: 0
      spriteId: 363
      blendAmount: 0
    - x: 4
      y: 67
      layer: 0
      spriteId: 364
      blendAmount: 0
    - x: 5
      y: 67
      layer: 0
      spriteId: 365
      blendAmount: 0
    - x: 6
      y: 67
      layer: 0
      spriteId: 366
      blendAmount: 0
    - x: 7
      y: 67
      layer: 0
      spriteId: 367
      blendAmount: 0
    - x: 0
      y: 66
      layer: 0
      spriteId: 368
      blendAmount: 0
    - x: 1
      y: 66
      layer: 0
      spriteId: 369
      blendAmount: 0
    - x: 2
      y: 66
      layer: 0
      spriteId: 370
      blendAmount: 0
    - x: 3
      y: 66
      layer: 0
      spriteId: 371
      blendAmount: 0
    - x: 4
      y: 66
      layer: 0
      spriteId: 372
      blendAmount: 0
    - x: 5
      y: 66
      layer: 0
      spriteId: 373
      blendAmount: 0
    - x: 6
      y: 66
      layer: 0
      spriteId: 374
      blendAmount: 0
    - x: 7
      y: 66
      layer: 0
      spriteId: 375
      blendAmount: 0
    - x: 0
      y: 65
      layer: 0
      spriteId: 376
      blendAmount: 0
    - x: 1
      y: 65
      layer: 0
      spriteId: 377
      blendAmount: 0
    - x: 2
      y: 65
      layer: 0
      spriteId: 378
      blendAmount: 0
    - x: 3
      y: 65
      layer: 0
      spriteId: 379
      blendAmount: 0
    - x: 4
      y: 65
      layer: 0
      spriteId: 380
      blendAmount: 0
    - x: 5
      y: 65
      layer: 0
      spriteId: 381
      blendAmount: 0
    - x: 6
      y: 65
      layer: 0
      spriteId: 382
      blendAmount: 0
    - x: 7
      y: 65
      layer: 0
      spriteId: 383
      blendAmount: 0
    - x: 0
      y: 64
      layer: 0
      spriteId: 384
      blendAmount: 0
    - x: 1
      y: 64
      layer: 0
      spriteId: 385
      blendAmount: 0
    - x: 2
      y: 64
      layer: 0
      spriteId: 386
      blendAmount: 0
    - x: 3
      y: 64
      layer: 0
      spriteId: 387
      blendAmount: 0
    - x: 4
      y: 64
      layer: 0
      spriteId: 388
      blendAmount: 0
    - x: 5
      y: 64
      layer: 0
      spriteId: 389
      blendAmount: 0
    - x: 6
      y: 64
      layer: 0
      spriteId: 390
      blendAmount: 0
    - x: 7
      y: 64
      layer: 0
      spriteId: 391
      blendAmount: 0
    - x: 0
      y: 63
      layer: 0
      spriteId: 392
      blendAmount: 0
    - x: 1
      y: 63
      layer: 0
      spriteId: 393
      blendAmount: 0
    - x: 2
      y: 63
      layer: 0
      spriteId: 394
      blendAmount: 0
    - x: 3
      y: 63
      layer: 0
      spriteId: 395
      blendAmount: 0
    - x: 4
      y: 63
      layer: 0
      spriteId: 396
      blendAmount: 0
    - x: 5
      y: 63
      layer: 0
      spriteId: 397
      blendAmount: 0
    - x: 6
      y: 63
      layer: 0
      spriteId: 398
      blendAmount: 0
    - x: 7
      y: 63
      layer: 0
      spriteId: 399
      blendAmount: 0
    - x: 0
      y: 62
      layer: 0
      spriteId: 400
      blendAmount: 0
    - x: 1
      y: 62
      layer: 0
      spriteId: 401
      blendAmount: 0
    - x: 2
      y: 62
      layer: 0
      spriteId: 402
      blendAmount: 0
    - x: 3
      y: 62
      layer: 0
      spriteId: 403
      blendAmount: 0
    - x: 4
      y: 62
      layer: 0
      spriteId: 404
      blendAmount: 0
    - x: 5
      y: 62
      layer: 0
      spriteId: 405
      blendAmount: 0
    - x: 6
      y: 62
      layer: 0
      spriteId: 406
      blendAmount: 0
    - x: 7
      y: 62
      layer: 0
      spriteId: 407
      blendAmount: 0
    - x: 0
      y: 61
      layer: 0
      spriteId: 408
      blendAmount: 0
    - x: 1
      y: 61
      layer: 0
      spriteId: 409
      blendAmount: 0
    - x: 2
      y: 61
      layer: 0
      spriteId: 410
      blendAmount: 0
    - x: 3
      y: 61
      layer: 0
      spriteId: 411
      blendAmount: 0
    - x: 4
      y: 61
      layer: 0
      spriteId: 412
      blendAmount: 0
    - x: 5
      y: 61
      layer: 0
      spriteId: 413
      blendAmount: 0
    - x: 6
      y: 61
      layer: 0
      spriteId: 414
      blendAmount: 0
    - x: 7
      y: 61
      layer: 0
      spriteId: 415
      blendAmount: 0
    - x: 0
      y: 60
      layer: 0
      spriteId: 416
      blendAmount: 0
    - x: 1
      y: 60
      layer: 0
      spriteId: 417
      blendAmount: 0
    - x: 2
      y: 60
      layer: 0
      spriteId: 418
      blendAmount: 0
    - x: 3
      y: 60
      layer: 0
      spriteId: 419
      blendAmount: 0
    - x: 4
      y: 60
      layer: 0
      spriteId: 420
      blendAmount: 0
    - x: 5
      y: 60
      layer: 0
      spriteId: 421
      blendAmount: 0
    - x: 6
      y: 60
      layer: 0
      spriteId: 422
      blendAmount: 0
    - x: 7
      y: 60
      layer: 0
      spriteId: 423
      blendAmount: 0
    - x: 0
      y: 59
      layer: 0
      spriteId: 424
      blendAmount: 0
    - x: 1
      y: 59
      layer: 0
      spriteId: 425
      blendAmount: 0
    - x: 2
      y: 59
      layer: 0
      spriteId: 426
      blendAmount: 0
    - x: 3
      y: 59
      layer: 0
      spriteId: 427
      blendAmount: 0
    - x: 4
      y: 59
      layer: 0
      spriteId: 428
      blendAmount: 0
    - x: 5
      y: 59
      layer: 0
      spriteId: 429
      blendAmount: 0
    - x: 6
      y: 59
      layer: 0
      spriteId: 430
      blendAmount: 0
    - x: 7
      y: 59
      layer: 0
      spriteId: 431
      blendAmount: 0
    - x: 0
      y: 58
      layer: 0
      spriteId: 432
      blendAmount: 0
    - x: 1
      y: 58
      layer: 0
      spriteId: 433
      blendAmount: 0
    - x: 2
      y: 58
      layer: 0
      spriteId: 434
      blendAmount: 0
    - x: 3
      y: 58
      layer: 0
      spriteId: 435
      blendAmount: 0
    - x: 4
      y: 58
      layer: 0
      spriteId: 436
      blendAmount: 0
    - x: 5
      y: 58
      layer: 0
      spriteId: 437
      blendAmount: 0
    - x: 6
      y: 58
      layer: 0
      spriteId: 438
      blendAmount: 0
    - x: 7
      y: 58
      layer: 0
      spriteId: 439
      blendAmount: 0
    - x: 0
      y: 57
      layer: 0
      spriteId: 440
      blendAmount: 0
    - x: 1
      y: 57
      layer: 0
      spriteId: 441
      blendAmount: 0
    - x: 2
      y: 57
      layer: 0
      spriteId: 442
      blendAmount: 0
    - x: 3
      y: 57
      layer: 0
      spriteId: 443
      blendAmount: 0
    - x: 4
      y: 57
      layer: 0
      spriteId: 444
      blendAmount: 0
    - x: 5
      y: 57
      layer: 0
      spriteId: 445
      blendAmount: 0
    - x: 6
      y: 57
      layer: 0
      spriteId: 446
      blendAmount: 0
    - x: 7
      y: 57
      layer: 0
      spriteId: 447
      blendAmount: 0
    - x: 0
      y: 56
      layer: 0
      spriteId: 448
      blendAmount: 0
    - x: 1
      y: 56
      layer: 0
      spriteId: 449
      blendAmount: 0
    - x: 2
      y: 56
      layer: 0
      spriteId: 450
      blendAmount: 0
    - x: 3
      y: 56
      layer: 0
      spriteId: 451
      blendAmount: 0
    - x: 4
      y: 56
      layer: 0
      spriteId: 452
      blendAmount: 0
    - x: 5
      y: 56
      layer: 0
      spriteId: 453
      blendAmount: 0
    - x: 6
      y: 56
      layer: 0
      spriteId: 454
      blendAmount: 0
    - x: 7
      y: 56
      layer: 0
      spriteId: 455
      blendAmount: 0
    - x: 0
      y: 55
      layer: 0
      spriteId: 456
      blendAmount: 0
    - x: 1
      y: 55
      layer: 0
      spriteId: 457
      blendAmount: 0
    - x: 2
      y: 55
      layer: 0
      spriteId: 458
      blendAmount: 0
    - x: 3
      y: 55
      layer: 0
      spriteId: 459
      blendAmount: 0
    - x: 4
      y: 55
      layer: 0
      spriteId: 460
      blendAmount: 0
    - x: 5
      y: 55
      layer: 0
      spriteId: 461
      blendAmount: 0
    - x: 6
      y: 55
      layer: 0
      spriteId: 462
      blendAmount: 0
    - x: 7
      y: 55
      layer: 0
      spriteId: 463
      blendAmount: 0
    - x: 0
      y: 54
      layer: 0
      spriteId: 464
      blendAmount: 0
    - x: 1
      y: 54
      layer: 0
      spriteId: 465
      blendAmount: 0
    - x: 2
      y: 54
      layer: 0
      spriteId: 466
      blendAmount: 0
    - x: 3
      y: 54
      layer: 0
      spriteId: 467
      blendAmount: 0
    - x: 4
      y: 54
      layer: 0
      spriteId: 468
      blendAmount: 0
    - x: 5
      y: 54
      layer: 0
      spriteId: 469
      blendAmount: 0
    - x: 6
      y: 54
      layer: 0
      spriteId: 470
      blendAmount: 0
    - x: 7
      y: 54
      layer: 0
      spriteId: 471
      blendAmount: 0
    - x: 0
      y: 53
      layer: 0
      spriteId: 472
      blendAmount: 0
    - x: 1
      y: 53
      layer: 0
      spriteId: 473
      blendAmount: 0
    - x: 2
      y: 53
      layer: 0
      spriteId: 474
      blendAmount: 0
    - x: 3
      y: 53
      layer: 0
      spriteId: 475
      blendAmount: 0
    - x: 4
      y: 53
      layer: 0
      spriteId: 476
      blendAmount: 0
    - x: 5
      y: 53
      layer: 0
      spriteId: 477
      blendAmount: 0
    - x: 6
      y: 53
      layer: 0
      spriteId: 478
      blendAmount: 0
    - x: 7
      y: 53
      layer: 0
      spriteId: 479
      blendAmount: 0
    - x: 0
      y: 52
      layer: 0
      spriteId: 480
      blendAmount: 0
    - x: 1
      y: 52
      layer: 0
      spriteId: 481
      blendAmount: 0
    - x: 2
      y: 52
      layer: 0
      spriteId: 482
      blendAmount: 0
    - x: 3
      y: 52
      layer: 0
      spriteId: 483
      blendAmount: 0
    - x: 4
      y: 52
      layer: 0
      spriteId: 484
      blendAmount: 0
    - x: 5
      y: 52
      layer: 0
      spriteId: 485
      blendAmount: 0
    - x: 6
      y: 52
      layer: 0
      spriteId: 486
      blendAmount: 0
    - x: 7
      y: 52
      layer: 0
      spriteId: 487
      blendAmount: 0
    - x: 0
      y: 51
      layer: 0
      spriteId: 488
      blendAmount: 0
    - x: 1
      y: 51
      layer: 0
      spriteId: 489
      blendAmount: 0
    - x: 2
      y: 51
      layer: 0
      spriteId: 490
      blendAmount: 0
    - x: 3
      y: 51
      layer: 0
      spriteId: 491
      blendAmount: 0
    - x: 4
      y: 51
      layer: 0
      spriteId: 492
      blendAmount: 0
    - x: 5
      y: 51
      layer: 0
      spriteId: 493
      blendAmount: 0
    - x: 6
      y: 51
      layer: 0
      spriteId: 494
      blendAmount: 0
    - x: 7
      y: 51
      layer: 0
      spriteId: 495
      blendAmount: 0
    - x: 0
      y: 50
      layer: 0
      spriteId: 496
      blendAmount: 0
    - x: 1
      y: 50
      layer: 0
      spriteId: 497
      blendAmount: 0
    - x: 2
      y: 50
      layer: 0
      spriteId: 498
      blendAmount: 0
    - x: 3
      y: 50
      layer: 0
      spriteId: 499
      blendAmount: 0
    - x: 4
      y: 50
      layer: 0
      spriteId: 500
      blendAmount: 0
    - x: 5
      y: 50
      layer: 0
      spriteId: 501
      blendAmount: 0
    - x: 6
      y: 50
      layer: 0
      spriteId: 502
      blendAmount: 0
    - x: 7
      y: 50
      layer: 0
      spriteId: 503
      blendAmount: 0
    - x: 0
      y: 49
      layer: 0
      spriteId: 504
      blendAmount: 0
    - x: 1
      y: 49
      layer: 0
      spriteId: 505
      blendAmount: 0
    - x: 2
      y: 49
      layer: 0
      spriteId: 506
      blendAmount: 0
    - x: 3
      y: 49
      layer: 0
      spriteId: 507
      blendAmount: 0
    - x: 4
      y: 49
      layer: 0
      spriteId: 508
      blendAmount: 0
    - x: 5
      y: 49
      layer: 0
      spriteId: 509
      blendAmount: 0
    - x: 6
      y: 49
      layer: 0
      spriteId: 510
      blendAmount: 0
    - x: 7
      y: 49
      layer: 0
      spriteId: 511
      blendAmount: 0
    - x: 0
      y: 48
      layer: 0
      spriteId: 512
      blendAmount: 0
    - x: 1
      y: 48
      layer: 0
      spriteId: 513
      blendAmount: 0
    - x: 2
      y: 48
      layer: 0
      spriteId: 514
      blendAmount: 0
    - x: 3
      y: 48
      layer: 0
      spriteId: 515
      blendAmount: 0
    - x: 4
      y: 48
      layer: 0
      spriteId: 516
      blendAmount: 0
    - x: 5
      y: 48
      layer: 0
      spriteId: 517
      blendAmount: 0
    - x: 6
      y: 48
      layer: 0
      spriteId: 518
      blendAmount: 0
    - x: 7
      y: 48
      layer: 0
      spriteId: 519
      blendAmount: 0
    - x: 0
      y: 47
      layer: 0
      spriteId: 520
      blendAmount: 0
    - x: 1
      y: 47
      layer: 0
      spriteId: 521
      blendAmount: 0
    - x: 2
      y: 47
      layer: 0
      spriteId: 522
      blendAmount: 0
    - x: 3
      y: 47
      layer: 0
      spriteId: 523
      blendAmount: 0
    - x: 4
      y: 47
      layer: 0
      spriteId: 524
      blendAmount: 0
    - x: 5
      y: 47
      layer: 0
      spriteId: 525
      blendAmount: 0
    - x: 6
      y: 47
      layer: 0
      spriteId: 526
      blendAmount: 0
    - x: 7
      y: 47
      layer: 0
      spriteId: 527
      blendAmount: 0
    - x: 0
      y: 46
      layer: 0
      spriteId: 528
      blendAmount: 0
    - x: 1
      y: 46
      layer: 0
      spriteId: 529
      blendAmount: 0
    - x: 2
      y: 46
      layer: 0
      spriteId: 530
      blendAmount: 0
    - x: 3
      y: 46
      layer: 0
      spriteId: 531
      blendAmount: 0
    - x: 4
      y: 46
      layer: 0
      spriteId: 532
      blendAmount: 0
    - x: 5
      y: 46
      layer: 0
      spriteId: 533
      blendAmount: 0
    - x: 6
      y: 46
      layer: 0
      spriteId: 534
      blendAmount: 0
    - x: 7
      y: 46
      layer: 0
      spriteId: 535
      blendAmount: 0
    - x: 0
      y: 45
      layer: 0
      spriteId: 536
      blendAmount: 0
    - x: 1
      y: 45
      layer: 0
      spriteId: 537
      blendAmount: 0
    - x: 2
      y: 45
      layer: 0
      spriteId: 538
      blendAmount: 0
    - x: 3
      y: 45
      layer: 0
      spriteId: 539
      blendAmount: 0
    - x: 4
      y: 45
      layer: 0
      spriteId: 540
      blendAmount: 0
    - x: 5
      y: 45
      layer: 0
      spriteId: 541
      blendAmount: 0
    - x: 6
      y: 45
      layer: 0
      spriteId: 542
      blendAmount: 0
    - x: 7
      y: 45
      layer: 0
      spriteId: 543
      blendAmount: 0
    - x: 0
      y: 44
      layer: 0
      spriteId: 544
      blendAmount: 0
    - x: 1
      y: 44
      layer: 0
      spriteId: 545
      blendAmount: 0
    - x: 2
      y: 44
      layer: 0
      spriteId: 546
      blendAmount: 0
    - x: 3
      y: 44
      layer: 0
      spriteId: 547
      blendAmount: 0
    - x: 4
      y: 44
      layer: 0
      spriteId: 548
      blendAmount: 0
    - x: 5
      y: 44
      layer: 0
      spriteId: 549
      blendAmount: 0
    - x: 6
      y: 44
      layer: 0
      spriteId: 550
      blendAmount: 0
    - x: 7
      y: 44
      layer: 0
      spriteId: 551
      blendAmount: 0
    - x: 0
      y: 43
      layer: 0
      spriteId: 552
      blendAmount: 0
    - x: 1
      y: 43
      layer: 0
      spriteId: 553
      blendAmount: 0
    - x: 2
      y: 43
      layer: 0
      spriteId: 554
      blendAmount: 0
    - x: 3
      y: 43
      layer: 0
      spriteId: 555
      blendAmount: 0
    - x: 4
      y: 43
      layer: 0
      spriteId: 556
      blendAmount: 0
    - x: 5
      y: 43
      layer: 0
      spriteId: 557
      blendAmount: 0
    - x: 6
      y: 43
      layer: 0
      spriteId: 558
      blendAmount: 0
    - x: 7
      y: 43
      layer: 0
      spriteId: 559
      blendAmount: 0
    - x: 0
      y: 42
      layer: 0
      spriteId: 560
      blendAmount: 0
    - x: 1
      y: 42
      layer: 0
      spriteId: 561
      blendAmount: 0
    - x: 2
      y: 42
      layer: 0
      spriteId: 562
      blendAmount: 0
    - x: 3
      y: 42
      layer: 0
      spriteId: 563
      blendAmount: 0
    - x: 4
      y: 42
      layer: 0
      spriteId: 564
      blendAmount: 0
    - x: 5
      y: 42
      layer: 0
      spriteId: 565
      blendAmount: 0
    - x: 6
      y: 42
      layer: 0
      spriteId: 566
      blendAmount: 0
    - x: 7
      y: 42
      layer: 0
      spriteId: 567
      blendAmount: 0
    - x: 0
      y: 41
      layer: 0
      spriteId: 568
      blendAmount: 0
    - x: 1
      y: 41
      layer: 0
      spriteId: 569
      blendAmount: 0
    - x: 2
      y: 41
      layer: 0
      spriteId: 570
      blendAmount: 0
    - x: 3
      y: 41
      layer: 0
      spriteId: 571
      blendAmount: 0
    - x: 4
      y: 41
      layer: 0
      spriteId: 572
      blendAmount: 0
    - x: 5
      y: 41
      layer: 0
      spriteId: 573
      blendAmount: 0
    - x: 6
      y: 41
      layer: 0
      spriteId: 574
      blendAmount: 0
    - x: 7
      y: 41
      layer: 0
      spriteId: 575
      blendAmount: 0
    - x: 0
      y: 40
      layer: 0
      spriteId: 576
      blendAmount: 0
    - x: 1
      y: 40
      layer: 0
      spriteId: 577
      blendAmount: 0
    - x: 2
      y: 40
      layer: 0
      spriteId: 578
      blendAmount: 0
    - x: 3
      y: 40
      layer: 0
      spriteId: 579
      blendAmount: 0
    - x: 4
      y: 40
      layer: 0
      spriteId: 580
      blendAmount: 0
    - x: 5
      y: 40
      layer: 0
      spriteId: 581
      blendAmount: 0
    - x: 6
      y: 40
      layer: 0
      spriteId: 582
      blendAmount: 0
    - x: 7
      y: 40
      layer: 0
      spriteId: 583
      blendAmount: 0
    - x: 0
      y: 39
      layer: 0
      spriteId: 584
      blendAmount: 0
    - x: 1
      y: 39
      layer: 0
      spriteId: 585
      blendAmount: 0
    - x: 2
      y: 39
      layer: 0
      spriteId: 586
      blendAmount: 0
    - x: 3
      y: 39
      layer: 0
      spriteId: 587
      blendAmount: 0
    - x: 4
      y: 39
      layer: 0
      spriteId: 588
      blendAmount: 0
    - x: 5
      y: 39
      layer: 0
      spriteId: 589
      blendAmount: 0
    - x: 6
      y: 39
      layer: 0
      spriteId: 590
      blendAmount: 0
    - x: 7
      y: 39
      layer: 0
      spriteId: 591
      blendAmount: 0
    - x: 0
      y: 38
      layer: 0
      spriteId: 592
      blendAmount: 0
    - x: 1
      y: 38
      layer: 0
      spriteId: 593
      blendAmount: 0
    - x: 2
      y: 38
      layer: 0
      spriteId: 594
      blendAmount: 0
    - x: 3
      y: 38
      layer: 0
      spriteId: 595
      blendAmount: 0
    - x: 4
      y: 38
      layer: 0
      spriteId: 596
      blendAmount: 0
    - x: 5
      y: 38
      layer: 0
      spriteId: 597
      blendAmount: 0
    - x: 6
      y: 38
      layer: 0
      spriteId: 598
      blendAmount: 0
    - x: 7
      y: 38
      layer: 0
      spriteId: 599
      blendAmount: 0
    - x: 0
      y: 37
      layer: 0
      spriteId: 600
      blendAmount: 0
    - x: 1
      y: 37
      layer: 0
      spriteId: 601
      blendAmount: 0
    - x: 2
      y: 37
      layer: 0
      spriteId: 602
      blendAmount: 0
    - x: 3
      y: 37
      layer: 0
      spriteId: 603
      blendAmount: 0
    - x: 4
      y: 37
      layer: 0
      spriteId: 604
      blendAmount: 0
    - x: 5
      y: 37
      layer: 0
      spriteId: 605
      blendAmount: 0
    - x: 6
      y: 37
      layer: 0
      spriteId: 606
      blendAmount: 0
    - x: 7
      y: 37
      layer: 0
      spriteId: 607
      blendAmount: 0
    - x: 0
      y: 36
      layer: 0
      spriteId: 608
      blendAmount: 0
    - x: 1
      y: 36
      layer: 0
      spriteId: 609
      blendAmount: 0
    - x: 2
      y: 36
      layer: 0
      spriteId: 610
      blendAmount: 0
    - x: 3
      y: 36
      layer: 0
      spriteId: 611
      blendAmount: 0
    - x: 4
      y: 36
      layer: 0
      spriteId: 612
      blendAmount: 0
    - x: 5
      y: 36
      layer: 0
      spriteId: 613
      blendAmount: 0
    - x: 6
      y: 36
      layer: 0
      spriteId: 614
      blendAmount: 0
    - x: 7
      y: 36
      layer: 0
      spriteId: 615
      blendAmount: 0
    - x: 0
      y: 35
      layer: 0
      spriteId: 616
      blendAmount: 0
    - x: 1
      y: 35
      layer: 0
      spriteId: 617
      blendAmount: 0
    - x: 2
      y: 35
      layer: 0
      spriteId: 618
      blendAmount: 0
    - x: 3
      y: 35
      layer: 0
      spriteId: 619
      blendAmount: 0
    - x: 4
      y: 35
      layer: 0
      spriteId: 620
      blendAmount: 0
    - x: 5
      y: 35
      layer: 0
      spriteId: 621
      blendAmount: 0
    - x: 6
      y: 35
      layer: 0
      spriteId: 622
      blendAmount: 0
    - x: 7
      y: 35
      layer: 0
      spriteId: 623
      blendAmount: 0
    - x: 0
      y: 34
      layer: 0
      spriteId: 624
      blendAmount: 0
    - x: 1
      y: 34
      layer: 0
      spriteId: 625
      blendAmount: 0
    - x: 2
      y: 34
      layer: 0
      spriteId: 626
      blendAmount: 0
    - x: 3
      y: 34
      layer: 0
      spriteId: 627
      blendAmount: 0
    - x: 4
      y: 34
      layer: 0
      spriteId: 628
      blendAmount: 0
    - x: 5
      y: 34
      layer: 0
      spriteId: 629
      blendAmount: 0
    - x: 6
      y: 34
      layer: 0
      spriteId: 630
      blendAmount: 0
    - x: 7
      y: 34
      layer: 0
      spriteId: 631
      blendAmount: 0
    - x: 0
      y: 33
      layer: 0
      spriteId: 632
      blendAmount: 0
    - x: 1
      y: 33
      layer: 0
      spriteId: 633
      blendAmount: 0
    - x: 2
      y: 33
      layer: 0
      spriteId: 634
      blendAmount: 0
    - x: 3
      y: 33
      layer: 0
      spriteId: 635
      blendAmount: 0
    - x: 4
      y: 33
      layer: 0
      spriteId: 636
      blendAmount: 0
    - x: 5
      y: 33
      layer: 0
      spriteId: 637
      blendAmount: 0
    - x: 6
      y: 33
      layer: 0
      spriteId: 638
      blendAmount: 0
    - x: 7
      y: 33
      layer: 0
      spriteId: 639
      blendAmount: 0
    - x: 0
      y: 32
      layer: 0
      spriteId: 640
      blendAmount: 0
    - x: 1
      y: 32
      layer: 0
      spriteId: 641
      blendAmount: 0
    - x: 2
      y: 32
      layer: 0
      spriteId: 642
      blendAmount: 0
    - x: 3
      y: 32
      layer: 0
      spriteId: 643
      blendAmount: 0
    - x: 4
      y: 32
      layer: 0
      spriteId: 644
      blendAmount: 0
    - x: 5
      y: 32
      layer: 0
      spriteId: 645
      blendAmount: 0
    - x: 6
      y: 32
      layer: 0
      spriteId: 646
      blendAmount: 0
    - x: 7
      y: 32
      layer: 0
      spriteId: 647
      blendAmount: 0
    - x: 0
      y: 31
      layer: 0
      spriteId: 648
      blendAmount: 0
    - x: 1
      y: 31
      layer: 0
      spriteId: 649
      blendAmount: 0
    - x: 2
      y: 31
      layer: 0
      spriteId: 650
      blendAmount: 0
    - x: 3
      y: 31
      layer: 0
      spriteId: 651
      blendAmount: 0
    - x: 4
      y: 31
      layer: 0
      spriteId: 652
      blendAmount: 0
    - x: 5
      y: 31
      layer: 0
      spriteId: 653
      blendAmount: 0
    - x: 6
      y: 31
      layer: 0
      spriteId: 654
      blendAmount: 0
    - x: 7
      y: 31
      layer: 0
      spriteId: 655
      blendAmount: 0
    - x: 0
      y: 30
      layer: 0
      spriteId: 656
      blendAmount: 0
    - x: 1
      y: 30
      layer: 0
      spriteId: 657
      blendAmount: 0
    - x: 2
      y: 30
      layer: 0
      spriteId: 658
      blendAmount: 0
    - x: 3
      y: 30
      layer: 0
      spriteId: 659
      blendAmount: 0
    - x: 4
      y: 30
      layer: 0
      spriteId: 660
      blendAmount: 0
    - x: 5
      y: 30
      layer: 0
      spriteId: 661
      blendAmount: 0
    - x: 6
      y: 30
      layer: 0
      spriteId: 662
      blendAmount: 0
    - x: 7
      y: 30
      layer: 0
      spriteId: 663
      blendAmount: 0
    - x: 0
      y: 29
      layer: 0
      spriteId: 664
      blendAmount: 0
    - x: 1
      y: 29
      layer: 0
      spriteId: 665
      blendAmount: 0
    - x: 2
      y: 29
      layer: 0
      spriteId: 666
      blendAmount: 0
    - x: 3
      y: 29
      layer: 0
      spriteId: 667
      blendAmount: 0
    - x: 4
      y: 29
      layer: 0
      spriteId: 668
      blendAmount: 0
    - x: 5
      y: 29
      layer: 0
      spriteId: 669
      blendAmount: 0
    - x: 6
      y: 29
      layer: 0
      spriteId: 670
      blendAmount: 0
    - x: 7
      y: 29
      layer: 0
      spriteId: 671
      blendAmount: 0
    - x: 0
      y: 28
      layer: 0
      spriteId: 672
      blendAmount: 0
    - x: 1
      y: 28
      layer: 0
      spriteId: 673
      blendAmount: 0
    - x: 2
      y: 28
      layer: 0
      spriteId: 674
      blendAmount: 0
    - x: 3
      y: 28
      layer: 0
      spriteId: 675
      blendAmount: 0
    - x: 4
      y: 28
      layer: 0
      spriteId: 676
      blendAmount: 0
    - x: 5
      y: 28
      layer: 0
      spriteId: 677
      blendAmount: 0
    - x: 6
      y: 28
      layer: 0
      spriteId: 678
      blendAmount: 0
    - x: 7
      y: 28
      layer: 0
      spriteId: 679
      blendAmount: 0
    - x: 0
      y: 27
      layer: 0
      spriteId: 680
      blendAmount: 0
    - x: 1
      y: 27
      layer: 0
      spriteId: 681
      blendAmount: 0
    - x: 2
      y: 27
      layer: 0
      spriteId: 682
      blendAmount: 0
    - x: 3
      y: 27
      layer: 0
      spriteId: 683
      blendAmount: 0
    - x: 4
      y: 27
      layer: 0
      spriteId: 684
      blendAmount: 0
    - x: 5
      y: 27
      layer: 0
      spriteId: 685
      blendAmount: 0
    - x: 6
      y: 27
      layer: 0
      spriteId: 686
      blendAmount: 0
    - x: 7
      y: 27
      layer: 0
      spriteId: 687
      blendAmount: 0
    - x: 0
      y: 26
      layer: 0
      spriteId: 688
      blendAmount: 0
    - x: 1
      y: 26
      layer: 0
      spriteId: 689
      blendAmount: 0
    - x: 2
      y: 26
      layer: 0
      spriteId: 690
      blendAmount: 0
    - x: 3
      y: 26
      layer: 0
      spriteId: 691
      blendAmount: 0
    - x: 4
      y: 26
      layer: 0
      spriteId: 692
      blendAmount: 0
    - x: 5
      y: 26
      layer: 0
      spriteId: 693
      blendAmount: 0
    - x: 6
      y: 26
      layer: 0
      spriteId: 694
      blendAmount: 0
    - x: 7
      y: 26
      layer: 0
      spriteId: 695
      blendAmount: 0
    - x: 0
      y: 25
      layer: 0
      spriteId: 696
      blendAmount: 0
    - x: 1
      y: 25
      layer: 0
      spriteId: 697
      blendAmount: 0
    - x: 2
      y: 25
      layer: 0
      spriteId: 698
      blendAmount: 0
    - x: 3
      y: 25
      layer: 0
      spriteId: 699
      blendAmount: 0
    - x: 4
      y: 25
      layer: 0
      spriteId: 700
      blendAmount: 0
    - x: 5
      y: 25
      layer: 0
      spriteId: 701
      blendAmount: 0
    - x: 6
      y: 25
      layer: 0
      spriteId: 702
      blendAmount: 0
    - x: 7
      y: 25
      layer: 0
      spriteId: 703
      blendAmount: 0
    - x: 0
      y: 24
      layer: 0
      spriteId: 704
      blendAmount: 0
    - x: 1
      y: 24
      layer: 0
      spriteId: 705
      blendAmount: 0
    - x: 2
      y: 24
      layer: 0
      spriteId: 706
      blendAmount: 0
    - x: 3
      y: 24
      layer: 0
      spriteId: 707
      blendAmount: 0
    - x: 4
      y: 24
      layer: 0
      spriteId: 708
      blendAmount: 0
    - x: 5
      y: 24
      layer: 0
      spriteId: 709
      blendAmount: 0
    - x: 6
      y: 24
      layer: 0
      spriteId: 710
      blendAmount: 0
    - x: 7
      y: 24
      layer: 0
      spriteId: 711
      blendAmount: 0
    - x: 0
      y: 23
      layer: 0
      spriteId: 712
      blendAmount: 0
    - x: 1
      y: 23
      layer: 0
      spriteId: 713
      blendAmount: 0
    - x: 2
      y: 23
      layer: 0
      spriteId: 714
      blendAmount: 0
    - x: 3
      y: 23
      layer: 0
      spriteId: 715
      blendAmount: 0
    - x: 4
      y: 23
      layer: 0
      spriteId: 716
      blendAmount: 0
    - x: 5
      y: 23
      layer: 0
      spriteId: 717
      blendAmount: 0
    - x: 6
      y: 23
      layer: 0
      spriteId: 718
      blendAmount: 0
    - x: 7
      y: 23
      layer: 0
      spriteId: 719
      blendAmount: 0
    - x: 0
      y: 22
      layer: 0
      spriteId: 720
      blendAmount: 0
    - x: 1
      y: 22
      layer: 0
      spriteId: 721
      blendAmount: 0
    - x: 2
      y: 22
      layer: 0
      spriteId: 722
      blendAmount: 0
    - x: 3
      y: 22
      layer: 0
      spriteId: 723
      blendAmount: 0
    - x: 4
      y: 22
      layer: 0
      spriteId: 724
      blendAmount: 0
    - x: 5
      y: 22
      layer: 0
      spriteId: 725
      blendAmount: 0
    - x: 6
      y: 22
      layer: 0
      spriteId: 726
      blendAmount: 0
    - x: 7
      y: 22
      layer: 0
      spriteId: 727
      blendAmount: 0
    - x: 0
      y: 21
      layer: 0
      spriteId: 728
      blendAmount: 0
    - x: 1
      y: 21
      layer: 0
      spriteId: 729
      blendAmount: 0
    - x: 2
      y: 21
      layer: 0
      spriteId: 730
      blendAmount: 0
    - x: 3
      y: 21
      layer: 0
      spriteId: 731
      blendAmount: 0
    - x: 4
      y: 21
      layer: 0
      spriteId: 732
      blendAmount: 0
    - x: 5
      y: 21
      layer: 0
      spriteId: 733
      blendAmount: 0
    - x: 6
      y: 21
      layer: 0
      spriteId: 734
      blendAmount: 0
    - x: 7
      y: 21
      layer: 0
      spriteId: 735
      blendAmount: 0
    - x: 0
      y: 20
      layer: 0
      spriteId: 736
      blendAmount: 0
    - x: 1
      y: 20
      layer: 0
      spriteId: 737
      blendAmount: 0
    - x: 2
      y: 20
      layer: 0
      spriteId: 738
      blendAmount: 0
    - x: 3
      y: 20
      layer: 0
      spriteId: 739
      blendAmount: 0
    - x: 4
      y: 20
      layer: 0
      spriteId: 740
      blendAmount: 0
    - x: 5
      y: 20
      layer: 0
      spriteId: 741
      blendAmount: 0
    - x: 6
      y: 20
      layer: 0
      spriteId: 742
      blendAmount: 0
    - x: 7
      y: 20
      layer: 0
      spriteId: 743
      blendAmount: 0
    - x: 0
      y: 19
      layer: 0
      spriteId: 744
      blendAmount: 0
    - x: 1
      y: 19
      layer: 0
      spriteId: 745
      blendAmount: 0
    - x: 2
      y: 19
      layer: 0
      spriteId: 746
      blendAmount: 0
    - x: 3
      y: 19
      layer: 0
      spriteId: 747
      blendAmount: 0
    - x: 4
      y: 19
      layer: 0
      spriteId: 748
      blendAmount: 0
    - x: 5
      y: 19
      layer: 0
      spriteId: 749
      blendAmount: 0
    - x: 6
      y: 19
      layer: 0
      spriteId: 750
      blendAmount: 0
    - x: 7
      y: 19
      layer: 0
      spriteId: 751
      blendAmount: 0
    - x: 0
      y: 18
      layer: 0
      spriteId: 752
      blendAmount: 0
    - x: 1
      y: 18
      layer: 0
      spriteId: 753
      blendAmount: 0
    - x: 2
      y: 18
      layer: 0
      spriteId: 754
      blendAmount: 0
    - x: 3
      y: 18
      layer: 0
      spriteId: 755
      blendAmount: 0
    - x: 4
      y: 18
      layer: 0
      spriteId: 756
      blendAmount: 0
    - x: 5
      y: 18
      layer: 0
      spriteId: 757
      blendAmount: 0
    - x: 6
      y: 18
      layer: 0
      spriteId: 758
      blendAmount: 0
    - x: 7
      y: 18
      layer: 0
      spriteId: 759
      blendAmount: 0
    - x: 0
      y: 17
      layer: 0
      spriteId: 760
      blendAmount: 0
    - x: 1
      y: 17
      layer: 0
      spriteId: 761
      blendAmount: 0
    - x: 2
      y: 17
      layer: 0
      spriteId: 762
      blendAmount: 0
    - x: 3
      y: 17
      layer: 0
      spriteId: 763
      blendAmount: 0
    - x: 4
      y: 17
      layer: 0
      spriteId: 764
      blendAmount: 0
    - x: 5
      y: 17
      layer: 0
      spriteId: 765
      blendAmount: 0
    - x: 6
      y: 17
      layer: 0
      spriteId: 766
      blendAmount: 0
    - x: 7
      y: 17
      layer: 0
      spriteId: 767
      blendAmount: 0
    - x: 0
      y: 16
      layer: 0
      spriteId: 768
      blendAmount: 0
    - x: 1
      y: 16
      layer: 0
      spriteId: 769
      blendAmount: 0
    - x: 2
      y: 16
      layer: 0
      spriteId: 770
      blendAmount: 0
    - x: 3
      y: 16
      layer: 0
      spriteId: 771
      blendAmount: 0
    - x: 4
      y: 16
      layer: 0
      spriteId: 772
      blendAmount: 0
    - x: 5
      y: 16
      layer: 0
      spriteId: 773
      blendAmount: 0
    - x: 6
      y: 16
      layer: 0
      spriteId: 774
      blendAmount: 0
    - x: 7
      y: 16
      layer: 0
      spriteId: 775
      blendAmount: 0
    - x: 0
      y: 15
      layer: 0
      spriteId: 776
      blendAmount: 0
    - x: 1
      y: 15
      layer: 0
      spriteId: 777
      blendAmount: 0
    - x: 2
      y: 15
      layer: 0
      spriteId: 778
      blendAmount: 0
    - x: 3
      y: 15
      layer: 0
      spriteId: 779
      blendAmount: 0
    - x: 4
      y: 15
      layer: 0
      spriteId: 780
      blendAmount: 0
    - x: 5
      y: 15
      layer: 0
      spriteId: 781
      blendAmount: 0
    - x: 6
      y: 15
      layer: 0
      spriteId: 782
      blendAmount: 0
    - x: 7
      y: 15
      layer: 0
      spriteId: 783
      blendAmount: 0
    - x: 0
      y: 14
      layer: 0
      spriteId: 784
      blendAmount: 0
    - x: 1
      y: 14
      layer: 0
      spriteId: 785
      blendAmount: 0
    - x: 2
      y: 14
      layer: 0
      spriteId: 786
      blendAmount: 0
    - x: 3
      y: 14
      layer: 0
      spriteId: 787
      blendAmount: 0
    - x: 4
      y: 14
      layer: 0
      spriteId: 788
      blendAmount: 0
    - x: 5
      y: 14
      layer: 0
      spriteId: 789
      blendAmount: 0
    - x: 6
      y: 14
      layer: 0
      spriteId: 790
      blendAmount: 0
    - x: 7
      y: 14
      layer: 0
      spriteId: 791
      blendAmount: 0
    - x: 0
      y: 13
      layer: 0
      spriteId: 792
      blendAmount: 0
    - x: 1
      y: 13
      layer: 0
      spriteId: 793
      blendAmount: 0
    - x: 2
      y: 13
      layer: 0
      spriteId: 794
      blendAmount: 0
    - x: 3
      y: 13
      layer: 0
      spriteId: 795
      blendAmount: 0
    - x: 4
      y: 13
      layer: 0
      spriteId: 796
      blendAmount: 0
    - x: 5
      y: 13
      layer: 0
      spriteId: 797
      blendAmount: 0
    - x: 6
      y: 13
      layer: 0
      spriteId: 798
      blendAmount: 0
    - x: 7
      y: 13
      layer: 0
      spriteId: 799
      blendAmount: 0
    - x: 0
      y: 12
      layer: 0
      spriteId: 800
      blendAmount: 0
    - x: 1
      y: 12
      layer: 0
      spriteId: 801
      blendAmount: 0
    - x: 2
      y: 12
      layer: 0
      spriteId: 802
      blendAmount: 0
    - x: 3
      y: 12
      layer: 0
      spriteId: 803
      blendAmount: 0
    - x: 4
      y: 12
      layer: 0
      spriteId: 804
      blendAmount: 0
    - x: 5
      y: 12
      layer: 0
      spriteId: 805
      blendAmount: 0
    - x: 6
      y: 12
      layer: 0
      spriteId: 806
      blendAmount: 0
    - x: 7
      y: 12
      layer: 0
      spriteId: 807
      blendAmount: 0
    - x: 0
      y: 11
      layer: 0
      spriteId: 808
      blendAmount: 0
    - x: 1
      y: 11
      layer: 0
      spriteId: 809
      blendAmount: 0
    - x: 2
      y: 11
      layer: 0
      spriteId: 810
      blendAmount: 0
    - x: 3
      y: 11
      layer: 0
      spriteId: 811
      blendAmount: 0
    - x: 4
      y: 11
      layer: 0
      spriteId: 812
      blendAmount: 0
    - x: 5
      y: 11
      layer: 0
      spriteId: 813
      blendAmount: 0
    - x: 6
      y: 11
      layer: 0
      spriteId: 814
      blendAmount: 0
    - x: 7
      y: 11
      layer: 0
      spriteId: 815
      blendAmount: 0
    - x: 0
      y: 10
      layer: 0
      spriteId: 816
      blendAmount: 0
    - x: 1
      y: 10
      layer: 0
      spriteId: 817
      blendAmount: 0
    - x: 2
      y: 10
      layer: 0
      spriteId: 818
      blendAmount: 0
    - x: 3
      y: 10
      layer: 0
      spriteId: 819
      blendAmount: 0
    - x: 4
      y: 10
      layer: 0
      spriteId: 820
      blendAmount: 0
    - x: 5
      y: 10
      layer: 0
      spriteId: 821
      blendAmount: 0
    - x: 6
      y: 10
      layer: 0
      spriteId: 822
      blendAmount: 0
    - x: 7
      y: 10
      layer: 0
      spriteId: 823
      blendAmount: 0
    - x: 0
      y: 9
      layer: 0
      spriteId: 824
      blendAmount: 0
    - x: 1
      y: 9
      layer: 0
      spriteId: 825
      blendAmount: 0
    - x: 2
      y: 9
      layer: 0
      spriteId: 826
      blendAmount: 0
    - x: 3
      y: 9
      layer: 0
      spriteId: 827
      blendAmount: 0
    - x: 4
      y: 9
      layer: 0
      spriteId: 828
      blendAmount: 0
    - x: 5
      y: 9
      layer: 0
      spriteId: 829
      blendAmount: 0
    - x: 6
      y: 9
      layer: 0
      spriteId: 830
      blendAmount: 0
    - x: 7
      y: 9
      layer: 0
      spriteId: 831
      blendAmount: 0
    - x: 0
      y: 8
      layer: 0
      spriteId: 832
      blendAmount: 0
    - x: 1
      y: 8
      layer: 0
      spriteId: 833
      blendAmount: 0
    - x: 2
      y: 8
      layer: 0
      spriteId: 834
      blendAmount: 0
    - x: 3
      y: 8
      layer: 0
      spriteId: 835
      blendAmount: 0
    - x: 4
      y: 8
      layer: 0
      spriteId: 836
      blendAmount: 0
    - x: 5
      y: 8
      layer: 0
      spriteId: 837
      blendAmount: 0
    - x: 6
      y: 8
      layer: 0
      spriteId: 838
      blendAmount: 0
    - x: 7
      y: 8
      layer: 0
      spriteId: 839
      blendAmount: 0
    - x: 0
      y: 7
      layer: 0
      spriteId: 840
      blendAmount: 0
    - x: 1
      y: 7
      layer: 0
      spriteId: 841
      blendAmount: 0
    - x: 2
      y: 7
      layer: 0
      spriteId: 842
      blendAmount: 0
    - x: 3
      y: 7
      layer: 0
      spriteId: 843
      blendAmount: 0
    - x: 4
      y: 7
      layer: 0
      spriteId: 844
      blendAmount: 0
    - x: 5
      y: 7
      layer: 0
      spriteId: 845
      blendAmount: 0
    - x: 6
      y: 7
      layer: 0
      spriteId: 846
      blendAmount: 0
    - x: 7
      y: 7
      layer: 0
      spriteId: 847
      blendAmount: 0
    - x: 0
      y: 6
      layer: 0
      spriteId: 848
      blendAmount: 0
    - x: 1
      y: 6
      layer: 0
      spriteId: 849
      blendAmount: 0
    - x: 2
      y: 6
      layer: 0
      spriteId: 850
      blendAmount: 0
    - x: 3
      y: 6
      layer: 0
      spriteId: 851
      blendAmount: 0
    - x: 4
      y: 6
      layer: 0
      spriteId: 852
      blendAmount: 0
    - x: 5
      y: 6
      layer: 0
      spriteId: 853
      blendAmount: 0
    - x: 6
      y: 6
      layer: 0
      spriteId: 854
      blendAmount: 0
    - x: 7
      y: 6
      layer: 0
      spriteId: 855
      blendAmount: 0
    - x: 0
      y: 5
      layer: 0
      spriteId: 856
      blendAmount: 0
    - x: 1
      y: 5
      layer: 0
      spriteId: 857
      blendAmount: 0
    - x: 2
      y: 5
      layer: 0
      spriteId: 858
      blendAmount: 0
    - x: 3
      y: 5
      layer: 0
      spriteId: 859
      blendAmount: 0
    - x: 4
      y: 5
      layer: 0
      spriteId: 860
      blendAmount: 0
    - x: 5
      y: 5
      layer: 0
      spriteId: 861
      blendAmount: 0
    - x: 6
      y: 5
      layer: 0
      spriteId: 862
      blendAmount: 0
    - x: 7
      y: 5
      layer: 0
      spriteId: 863
      blendAmount: 0
    - x: 0
      y: 4
      layer: 0
      spriteId: 864
      blendAmount: 0
    - x: 1
      y: 4
      layer: 0
      spriteId: 865
      blendAmount: 0
    - x: 2
      y: 4
      layer: 0
      spriteId: 866
      blendAmount: 0
    - x: 3
      y: 4
      layer: 0
      spriteId: 867
      blendAmount: 0
    - x: 4
      y: 4
      layer: 0
      spriteId: 868
      blendAmount: 0
    - x: 5
      y: 4
      layer: 0
      spriteId: 869
      blendAmount: 0
    - x: 6
      y: 4
      layer: 0
      spriteId: 870
      blendAmount: 0
    - x: 7
      y: 4
      layer: 0
      spriteId: 871
      blendAmount: 0
    - x: 0
      y: 3
      layer: 0
      spriteId: 872
      blendAmount: 0
    - x: 1
      y: 3
      layer: 0
      spriteId: 873
      blendAmount: 0
    - x: 2
      y: 3
      layer: 0
      spriteId: 874
      blendAmount: 0
    - x: 3
      y: 3
      layer: 0
      spriteId: 875
      blendAmount: 0
    - x: 4
      y: 3
      layer: 0
      spriteId: 876
      blendAmount: 0
    - x: 5
      y: 3
      layer: 0
      spriteId: 877
      blendAmount: 0
    - x: 6
      y: 3
      layer: 0
      spriteId: 878
      blendAmount: 0
    - x: 7
      y: 3
      layer: 0
      spriteId: 879
      blendAmount: 0
    - x: 0
      y: 2
      layer: 0
      spriteId: 880
      blendAmount: 0
    - x: 1
      y: 2
      layer: 0
      spriteId: 881
      blendAmount: 0
    - x: 2
      y: 2
      layer: 0
      spriteId: 882
      blendAmount: 0
    - x: 3
      y: 2
      layer: 0
      spriteId: 883
      blendAmount: 0
    - x: 4
      y: 2
      layer: 0
      spriteId: 884
      blendAmount: 0
    - x: 5
      y: 2
      layer: 0
      spriteId: 885
      blendAmount: 0
    - x: 6
      y: 2
      layer: 0
      spriteId: 886
      blendAmount: 0
    - x: 7
      y: 2
      layer: 0
      spriteId: 887
      blendAmount: 0
    - x: 0
      y: 1
      layer: 0
      spriteId: 888
      blendAmount: 0
    - x: 1
      y: 1
      layer: 0
      spriteId: 889
      blendAmount: 0
    - x: 2
      y: 1
      layer: 0
      spriteId: 890
      blendAmount: 0
    - x: 3
      y: 1
      layer: 0
      spriteId: 891
      blendAmount: 0
    - x: 4
      y: 1
      layer: 0
      spriteId: 892
      blendAmount: 0
    - x: 5
      y: 1
      layer: 0
      spriteId: 893
      blendAmount: 0
    - x: 6
      y: 1
      layer: 0
      spriteId: 894
      blendAmount: 0
    - x: 7
      y: 1
      layer: 0
      spriteId: 895
      blendAmount: 0
    - x: 0
      y: 0
      layer: 0
      spriteId: 896
      blendAmount: 0
    - x: 1
      y: 0
      layer: 0
      spriteId: 897
      blendAmount: 0
    - x: 2
      y: 0
      layer: 0
      spriteId: 898
      blendAmount: 0
    - x: 3
      y: 0
      layer: 0
      spriteId: 899
      blendAmount: 0
    multiSelectTiles: 
    edgeMode: 0
    multiLayer: 0
    overrideWithSpriteBounds: 1
    brushHash: -1460136128
  paletteTilesPerRow: 8
  setupMode: 0
  showBrush: 1
  showPalette: 1
  layer: 1
  scratchpads: []
