%YAML 1.1
%TAG !u! tag:unity3d.com,2011:
--- !u!114 &11400000
MonoBehaviour:
  m_ObjectHideFlags: 0
  m_PrefabParentObject: {fileID: 0}
  m_PrefabInternal: {fileID: 0}
  m_GameObject: {fileID: 0}
  m_Enabled: 1
  m_EditorHideFlags: 0
  m_Script: {fileID: 11500000, guid: fb356b9a6a1da084695128b00c8721be, type: 3}
  m_Name: HouseTileMap
  m_EditorClassIdentifier: 
  tileSize: {x: 1, y: 1, z: 0}
  tileOrigin: {x: -.476190448, y: -.523809552, z: 0}
  tileType: 0
  sortMethod: 0
  layersFixedZ: 0
  useSortingLayers: 0
  tilePrefabs:
  - {fileID: 0}
  - {fileID: 0}
  - {fileID: 0}
  - {fileID: 0}
  - {fileID: 0}
  - {fileID: 0}
  - {fileID: 0}
  - {fileID: 0}
  - {fileID: 0}
  - {fileID: 0}
  - {fileID: 0}
  - {fileID: 0}
  - {fileID: 0}
  - {fileID: 0}
  - {fileID: 0}
  - {fileID: 0}
  - {fileID: 0}
  - {fileID: 0}
  - {fileID: 0}
  - {fileID: 0}
  - {fileID: 0}
  - {fileID: 0}
  - {fileID: 0}
  - {fileID: 0}
  - {fileID: 0}
  - {fileID: 0}
  - {fileID: 0}
  - {fileID: 0}
  - {fileID: 0}
  - {fileID: 0}
  - {fileID: 0}
  - {fileID: 0}
  - {fileID: 0}
  - {fileID: 0}
  - {fileID: 0}
  - {fileID: 0}
  - {fileID: 0}
  - {fileID: 0}
  - {fileID: 0}
  - {fileID: 0}
  - {fileID: 0}
  - {fileID: 0}
  - {fileID: 0}
  - {fileID: 0}
  - {fileID: 0}
  - {fileID: 0}
  - {fileID: 0}
  - {fileID: 0}
  - {fileID: 0}
  - {fileID: 0}
  - {fileID: 0}
  - {fileID: 0}
  - {fileID: 0}
  - {fileID: 0}
  - {fileID: 0}
  - {fileID: 0}
  - {fileID: 0}
  - {fileID: 0}
  - {fileID: 0}
  - {fileID: 0}
  - {fileID: 0}
  - {fileID: 0}
  - {fileID: 0}
  - {fileID: 0}
  - {fileID: 0}
  - {fileID: 0}
  - {fileID: 0}
  - {fileID: 0}
  - {fileID: 0}
  - {fileID: 0}
  - {fileID: 0}
  - {fileID: 0}
  - {fileID: 0}
  - {fileID: 0}
  - {fileID: 0}
  - {fileID: 0}
  - {fileID: 0}
  - {fileID: 0}
  - {fileID: 0}
  - {fileID: 0}
  - {fileID: 0}
  - {fileID: 0}
  - {fileID: 0}
  - {fileID: 0}
  - {fileID: 0}
  - {fileID: 0}
  - {fileID: 0}
  - {fileID: 0}
  - {fileID: 0}
  - {fileID: 0}
  - {fileID: 0}
  - {fileID: 0}
  - {fileID: 0}
  - {fileID: 0}
  - {fileID: 0}
  - {fileID: 0}
  - {fileID: 0}
  - {fileID: 0}
  - {fileID: 0}
  - {fileID: 0}
  - {fileID: 0}
  - {fileID: 0}
  - {fileID: 0}
  - {fileID: 0}
  - {fileID: 0}
  - {fileID: 0}
  - {fileID: 0}
  - {fileID: 0}
  - {fileID: 0}
  - {fileID: 0}
  - {fileID: 0}
  - {fileID: 0}
  - {fileID: 0}
  - {fileID: 0}
  - {fileID: 0}
  - {fileID: 0}
  - {fileID: 0}
  - {fileID: 0}
  - {fileID: 0}
  - {fileID: 0}
  - {fileID: 0}
  - {fileID: 0}
  - {fileID: 0}
  - {fileID: 0}
  - {fileID: 0}
  - {fileID: 0}
  - {fileID: 0}
  - {fileID: 0}
  - {fileID: 0}
  - {fileID: 0}
  - {fileID: 0}
  - {fileID: 0}
  - {fileID: 0}
  - {fileID: 0}
  - {fileID: 0}
  - {fileID: 0}
  - {fileID: 0}
  - {fileID: 0}
  - {fileID: 0}
  - {fileID: 0}
  - {fileID: 0}
  - {fileID: 0}
  - {fileID: 0}
  - {fileID: 0}
  - {fileID: 0}
  - {fileID: 0}
  - {fileID: 0}
  - {fileID: 0}
  - {fileID: 0}
  - {fileID: 0}
  - {fileID: 0}
  - {fileID: 0}
  - {fileID: 0}
  - {fileID: 0}
  - {fileID: 0}
  - {fileID: 0}
  - {fileID: 0}
  - {fileID: 0}
  - {fileID: 0}
  - {fileID: 0}
  - {fileID: 0}
  - {fileID: 0}
  - {fileID: 0}
  - {fileID: 0}
  - {fileID: 0}
  - {fileID: 0}
  - {fileID: 0}
  - {fileID: 0}
  - {fileID: 0}
  - {fileID: 0}
  - {fileID: 0}
  - {fileID: 0}
  - {fileID: 0}
  - {fileID: 0}
  - {fileID: 0}
  - {fileID: 0}
  - {fileID: 0}
  - {fileID: 0}
  - {fileID: 0}
  - {fileID: 0}
  - {fileID: 0}
  - {fileID: 0}
  - {fileID: 0}
  - {fileID: 0}
  - {fileID: 0}
  - {fileID: 0}
  - {fileID: 0}
  - {fileID: 0}
  - {fileID: 0}
  - {fileID: 0}
  - {fileID: 0}
  - {fileID: 0}
  - {fileID: 0}
  - {fileID: 0}
  - {fileID: 0}
  - {fileID: 0}
  - {fileID: 0}
  - {fileID: 0}
  - {fileID: 0}
  - {fileID: 0}
  - {fileID: 0}
  - {fileID: 0}
  - {fileID: 0}
  - {fileID: 0}
  - {fileID: 0}
  - {fileID: 0}
  - {fileID: 0}
  - {fileID: 0}
  - {fileID: 0}
  - {fileID: 0}
  - {fileID: 0}
  - {fileID: 0}
  - {fileID: 0}
  - {fileID: 0}
  - {fileID: 0}
  - {fileID: 0}
  - {fileID: 0}
  - {fileID: 0}
  - {fileID: 0}
  - {fileID: 0}
  - {fileID: 0}
  - {fileID: 0}
  - {fileID: 0}
  - {fileID: 0}
  - {fileID: 0}
  - {fileID: 0}
  - {fileID: 0}
  - {fileID: 0}
  - {fileID: 0}
  - {fileID: 0}
  - {fileID: 0}
  - {fileID: 0}
  - {fileID: 0}
  - {fileID: 0}
  - {fileID: 0}
  - {fileID: 0}
  - {fileID: 0}
  - {fileID: 0}
  - {fileID: 0}
  - {fileID: 0}
  - {fileID: 0}
  - {fileID: 0}
  - {fileID: 0}
  - {fileID: 0}
  - {fileID: 0}
  - {fileID: 0}
  - {fileID: 0}
  - {fileID: 0}
  - {fileID: 0}
  - {fileID: 0}
  - {fileID: 0}
  - {fileID: 0}
  - {fileID: 0}
  - {fileID: 0}
  - {fileID: 0}
  - {fileID: 0}
  - {fileID: 0}
  - {fileID: 0}
  - {fileID: 0}
  - {fileID: 0}
  - {fileID: 0}
  - {fileID: 0}
  - {fileID: 0}
  - {fileID: 0}
  - {fileID: 0}
  - {fileID: 0}
  - {fileID: 0}
  - {fileID: 0}
  - {fileID: 0}
  - {fileID: 0}
  - {fileID: 0}
  - {fileID: 0}
  - {fileID: 0}
  - {fileID: 0}
  - {fileID: 0}
  - {fileID: 0}
  - {fileID: 0}
  - {fileID: 0}
  - {fileID: 0}
  - {fileID: 0}
  - {fileID: 0}
  - {fileID: 0}
  - {fileID: 0}
  - {fileID: 0}
  - {fileID: 0}
  - {fileID: 0}
  - {fileID: 0}
  - {fileID: 0}
  - {fileID: 0}
  - {fileID: 0}
  - {fileID: 0}
  - {fileID: 0}
  - {fileID: 0}
  - {fileID: 0}
  - {fileID: 0}
  - {fileID: 0}
  - {fileID: 0}
  - {fileID: 0}
  - {fileID: 0}
  - {fileID: 0}
  - {fileID: 0}
  - {fileID: 0}
  - {fileID: 0}
  - {fileID: 0}
  - {fileID: 0}
  - {fileID: 0}
  - {fileID: 0}
  - {fileID: 0}
  - {fileID: 0}
  - {fileID: 0}
  - {fileID: 0}
  - {fileID: 0}
  - {fileID: 0}
  - {fileID: 0}
  - {fileID: 0}
  - {fileID: 0}
  - {fileID: 0}
  - {fileID: 0}
  - {fileID: 0}
  - {fileID: 0}
  - {fileID: 0}
  - {fileID: 0}
  - {fileID: 0}
  - {fileID: 0}
  - {fileID: 0}
  - {fileID: 0}
  - {fileID: 0}
  - {fileID: 0}
  - {fileID: 0}
  - {fileID: 0}
  - {fileID: 0}
  - {fileID: 0}
  - {fileID: 0}
  - {fileID: 0}
  - {fileID: 0}
  - {fileID: 0}
  - {fileID: 0}
  - {fileID: 0}
  - {fileID: 0}
  - {fileID: 0}
  - {fileID: 0}
  - {fileID: 0}
  - {fileID: 0}
  - {fileID: 0}
  - {fileID: 0}
  - {fileID: 0}
  - {fileID: 0}
  - {fileID: 0}
  - {fileID: 0}
  - {fileID: 0}
  - {fileID: 0}
  - {fileID: 0}
  - {fileID: 0}
  - {fileID: 0}
  - {fileID: 0}
  - {fileID: 0}
  - {fileID: 0}
  - {fileID: 0}
  - {fileID: 0}
  - {fileID: 0}
  - {fileID: 0}
  - {fileID: 0}
  - {fileID: 0}
  - {fileID: 0}
  - {fileID: 0}
  - {fileID: 0}
  - {fileID: 0}
  - {fileID: 0}
  - {fileID: 0}
  - {fileID: 0}
  - {fileID: 0}
  - {fileID: 0}
  - {fileID: 0}
  - {fileID: 0}
  - {fileID: 0}
  - {fileID: 0}
  - {fileID: 0}
  - {fileID: 0}
  - {fileID: 0}
  - {fileID: 0}
  - {fileID: 0}
  - {fileID: 0}
  - {fileID: 0}
  - {fileID: 0}
  - {fileID: 0}
  - {fileID: 0}
  - {fileID: 0}
  - {fileID: 0}
  - {fileID: 0}
  - {fileID: 0}
  - {fileID: 0}
  - {fileID: 0}
  - {fileID: 0}
  - {fileID: 0}
  - {fileID: 0}
  - {fileID: 0}
  - {fileID: 0}
  - {fileID: 0}
  - {fileID: 0}
  - {fileID: 0}
  - {fileID: 0}
  - {fileID: 0}
  - {fileID: 0}
  - {fileID: 0}
  - {fileID: 0}
  - {fileID: 0}
  - {fileID: 0}
  - {fileID: 0}
  - {fileID: 0}
  - {fileID: 0}
  - {fileID: 0}
  - {fileID: 0}
  - {fileID: 0}
  - {fileID: 0}
  - {fileID: 0}
  - {fileID: 0}
  - {fileID: 0}
  - {fileID: 0}
  - {fileID: 0}
  - {fileID: 0}
  - {fileID: 0}
  - {fileID: 0}
  - {fileID: 0}
  - {fileID: 0}
  - {fileID: 0}
  - {fileID: 0}
  - {fileID: 0}
  - {fileID: 0}
  - {fileID: 0}
  - {fileID: 0}
  - {fileID: 0}
  - {fileID: 0}
  - {fileID: 0}
  - {fileID: 0}
  - {fileID: 0}
  - {fileID: 0}
  - {fileID: 0}
  - {fileID: 0}
  - {fileID: 0}
  - {fileID: 0}
  - {fileID: 0}
  - {fileID: 0}
  - {fileID: 0}
  - {fileID: 0}
  - {fileID: 0}
  - {fileID: 0}
  - {fileID: 0}
  - {fileID: 0}
  - {fileID: 0}
  - {fileID: 0}
  - {fileID: 0}
  - {fileID: 0}
  - {fileID: 0}
  - {fileID: 0}
  - {fileID: 0}
  - {fileID: 0}
  - {fileID: 0}
  - {fileID: 0}
  - {fileID: 0}
  - {fileID: 0}
  - {fileID: 0}
  - {fileID: 0}
  - {fileID: 0}
  - {fileID: 0}
  - {fileID: 0}
  - {fileID: 0}
  - {fileID: 0}
  - {fileID: 0}
  - {fileID: 0}
  - {fileID: 0}
  - {fileID: 0}
  - {fileID: 0}
  - {fileID: 0}
  - {fileID: 0}
  - {fileID: 0}
  - {fileID: 0}
  - {fileID: 0}
  - {fileID: 0}
  - {fileID: 0}
  - {fileID: 0}
  - {fileID: 0}
  - {fileID: 0}
  - {fileID: 0}
  - {fileID: 0}
  - {fileID: 0}
  - {fileID: 0}
  - {fileID: 0}
  - {fileID: 0}
  - {fileID: 0}
  - {fileID: 0}
  - {fileID: 0}
  - {fileID: 0}
  - {fileID: 0}
  - {fileID: 0}
  - {fileID: 0}
  - {fileID: 0}
  - {fileID: 0}
  - {fileID: 0}
  - {fileID: 0}
  - {fileID: 0}
  - {fileID: 0}
  - {fileID: 0}
  - {fileID: 0}
  - {fileID: 0}
  - {fileID: 0}
  - {fileID: 0}
  - {fileID: 0}
  - {fileID: 0}
  - {fileID: 0}
  - {fileID: 0}
  - {fileID: 0}
  - {fileID: 0}
  - {fileID: 0}
  - {fileID: 0}
  - {fileID: 0}
  - {fileID: 0}
  - {fileID: 0}
  - {fileID: 0}
  - {fileID: 0}
  - {fileID: 0}
  - {fileID: 0}
  - {fileID: 0}
  - {fileID: 0}
  - {fileID: 0}
  - {fileID: 0}
  - {fileID: 0}
  - {fileID: 0}
  - {fileID: 0}
  - {fileID: 0}
  - {fileID: 0}
  - {fileID: 0}
  - {fileID: 0}
  - {fileID: 0}
  - {fileID: 0}
  - {fileID: 0}
  - {fileID: 0}
  - {fileID: 0}
  - {fileID: 0}
  - {fileID: 0}
  - {fileID: 0}
  - {fileID: 0}
  - {fileID: 0}
  - {fileID: 0}
  - {fileID: 0}
  - {fileID: 0}
  - {fileID: 0}
  - {fileID: 0}
  - {fileID: 0}
  - {fileID: 0}
  - {fileID: 0}
  - {fileID: 0}
  - {fileID: 0}
  - {fileID: 0}
  - {fileID: 0}
  - {fileID: 0}
  - {fileID: 0}
  - {fileID: 0}
  - {fileID: 0}
  - {fileID: 0}
  - {fileID: 0}
  - {fileID: 0}
  - {fileID: 0}
  - {fileID: 0}
  - {fileID: 0}
  - {fileID: 0}
  - {fileID: 0}
  - {fileID: 0}
  - {fileID: 0}
  - {fileID: 0}
  - {fileID: 0}
  - {fileID: 0}
  - {fileID: 0}
  - {fileID: 0}
  - {fileID: 0}
  - {fileID: 0}
  - {fileID: 0}
  - {fileID: 0}
  - {fileID: 0}
  - {fileID: 0}
  - {fileID: 0}
  - {fileID: 0}
  - {fileID: 0}
  - {fileID: 0}
  - {fileID: 0}
  - {fileID: 0}
  - {fileID: 0}
  - {fileID: 0}
  - {fileID: 0}
  - {fileID: 0}
  - {fileID: 0}
  - {fileID: 0}
  - {fileID: 0}
  - {fileID: 0}
  - {fileID: 0}
  - {fileID: 0}
  - {fileID: 0}
  - {fileID: 0}
  - {fileID: 0}
  - {fileID: 0}
  - {fileID: 0}
  - {fileID: 0}
  - {fileID: 0}
  - {fileID: 0}
  - {fileID: 0}
  - {fileID: 0}
  - {fileID: 0}
  - {fileID: 0}
  - {fileID: 0}
  - {fileID: 0}
  - {fileID: 0}
  - {fileID: 0}
  - {fileID: 0}
  - {fileID: 0}
  - {fileID: 0}
  - {fileID: 0}
  - {fileID: 0}
  - {fileID: 0}
  - {fileID: 0}
  - {fileID: 0}
  - {fileID: 0}
  - {fileID: 0}
  - {fileID: 0}
  - {fileID: 0}
  - {fileID: 0}
  - {fileID: 0}
  - {fileID: 0}
  - {fileID: 0}
  - {fileID: 0}
  - {fileID: 0}
  - {fileID: 0}
  - {fileID: 0}
  - {fileID: 0}
  - {fileID: 0}
  - {fileID: 0}
  - {fileID: 0}
  - {fileID: 0}
  - {fileID: 0}
  - {fileID: 0}
  - {fileID: 0}
  - {fileID: 0}
  - {fileID: 0}
  - {fileID: 0}
  - {fileID: 0}
  - {fileID: 0}
  - {fileID: 0}
  - {fileID: 0}
  - {fileID: 0}
  - {fileID: 0}
  - {fileID: 0}
  - {fileID: 0}
  - {fileID: 0}
  - {fileID: 0}
  - {fileID: 0}
  - {fileID: 0}
  - {fileID: 0}
  - {fileID: 0}
  - {fileID: 0}
  - {fileID: 0}
  - {fileID: 0}
  - {fileID: 0}
  - {fileID: 0}
  - {fileID: 0}
  - {fileID: 0}
  - {fileID: 0}
  - {fileID: 0}
  - {fileID: 0}
  - {fileID: 0}
  - {fileID: 0}
  - {fileID: 0}
  - {fileID: 0}
  - {fileID: 0}
  - {fileID: 0}
  - {fileID: 0}
  - {fileID: 0}
  - {fileID: 0}
  - {fileID: 0}
  - {fileID: 0}
  - {fileID: 0}
  - {fileID: 0}
  - {fileID: 0}
  - {fileID: 0}
  - {fileID: 0}
  - {fileID: 0}
  - {fileID: 0}
  - {fileID: 0}
  - {fileID: 0}
  - {fileID: 0}
  - {fileID: 0}
  - {fileID: 0}
  - {fileID: 0}
  - {fileID: 0}
  - {fileID: 0}
  - {fileID: 0}
  - {fileID: 0}
  - {fileID: 0}
  - {fileID: 0}
  - {fileID: 0}
  - {fileID: 0}
  - {fileID: 0}
  - {fileID: 0}
  - {fileID: 0}
  - {fileID: 0}
  - {fileID: 0}
  - {fileID: 0}
  - {fileID: 0}
  - {fileID: 0}
  - {fileID: 0}
  - {fileID: 0}
  - {fileID: 0}
  - {fileID: 0}
  - {fileID: 0}
  - {fileID: 0}
  - {fileID: 0}
  - {fileID: 0}
  - {fileID: 0}
  - {fileID: 0}
  - {fileID: 0}
  - {fileID: 0}
  - {fileID: 0}
  - {fileID: 0}
  - {fileID: 0}
  - {fileID: 0}
  - {fileID: 0}
  - {fileID: 0}
  - {fileID: 0}
  - {fileID: 0}
  - {fileID: 0}
  - {fileID: 0}
  - {fileID: 0}
  - {fileID: 0}
  - {fileID: 0}
  - {fileID: 0}
  - {fileID: 0}
  - {fileID: 0}
  - {fileID: 0}
  - {fileID: 0}
  - {fileID: 0}
  - {fileID: 0}
  - {fileID: 0}
  - {fileID: 0}
  - {fileID: 0}
  - {fileID: 0}
  - {fileID: 0}
  - {fileID: 0}
  - {fileID: 0}
  - {fileID: 0}
  - {fileID: 0}
  - {fileID: 0}
  - {fileID: 0}
  - {fileID: 0}
  - {fileID: 0}
  - {fileID: 0}
  - {fileID: 0}
  - {fileID: 0}
  - {fileID: 0}
  - {fileID: 0}
  - {fileID: 0}
  - {fileID: 0}
  - {fileID: 0}
  - {fileID: 0}
  - {fileID: 0}
  - {fileID: 0}
  - {fileID: 0}
  - {fileID: 0}
  - {fileID: 0}
  - {fileID: 0}
  - {fileID: 0}
  - {fileID: 0}
  - {fileID: 0}
  - {fileID: 0}
  - {fileID: 0}
  - {fileID: 0}
  - {fileID: 0}
  - {fileID: 0}
  - {fileID: 0}
  - {fileID: 0}
  - {fileID: 0}
  - {fileID: 0}
  - {fileID: 0}
  - {fileID: 0}
  - {fileID: 0}
  - {fileID: 0}
  - {fileID: 0}
  - {fileID: 0}
  - {fileID: 0}
  - {fileID: 0}
  - {fileID: 0}
  - {fileID: 0}
  - {fileID: 0}
  - {fileID: 0}
  - {fileID: 0}
  - {fileID: 0}
  - {fileID: 0}
  - {fileID: 0}
  - {fileID: 0}
  - {fileID: 0}
  - {fileID: 0}
  - {fileID: 0}
  - {fileID: 0}
  - {fileID: 0}
  - {fileID: 0}
  - {fileID: 0}
  - {fileID: 0}
  - {fileID: 0}
  - {fileID: 0}
  - {fileID: 0}
  - {fileID: 0}
  - {fileID: 0}
  - {fileID: 0}
  - {fileID: 0}
  - {fileID: 0}
  - {fileID: 0}
  - {fileID: 0}
  - {fileID: 0}
  - {fileID: 0}
  - {fileID: 0}
  - {fileID: 0}
  - {fileID: 0}
  - {fileID: 0}
  - {fileID: 0}
  - {fileID: 0}
  - {fileID: 0}
  - {fileID: 0}
  - {fileID: 0}
  - {fileID: 0}
  - {fileID: 0}
  - {fileID: 0}
  - {fileID: 0}
  - {fileID: 0}
  - {fileID: 0}
  - {fileID: 0}
  - {fileID: 0}
  - {fileID: 0}
  - {fileID: 0}
  - {fileID: 0}
  - {fileID: 0}
  - {fileID: 0}
  - {fileID: 0}
  - {fileID: 0}
  - {fileID: 0}
  - {fileID: 0}
  - {fileID: 0}
  - {fileID: 0}
  - {fileID: 0}
  - {fileID: 0}
  - {fileID: 0}
  - {fileID: 0}
  - {fileID: 0}
  - {fileID: 0}
  - {fileID: 0}
  - {fileID: 0}
  - {fileID: 0}
  - {fileID: 0}
  - {fileID: 0}
  - {fileID: 0}
  - {fileID: 0}
  - {fileID: 0}
  - {fileID: 0}
  - {fileID: 0}
  - {fileID: 0}
  - {fileID: 0}
  - {fileID: 0}
  - {fileID: 0}
  - {fileID: 0}
  - {fileID: 0}
  - {fileID: 0}
  - {fileID: 0}
  - {fileID: 0}
  - {fileID: 0}
  - {fileID: 0}
  - {fileID: 0}
  - {fileID: 0}
  - {fileID: 0}
  - {fileID: 0}
  - {fileID: 0}
  - {fileID: 0}
  - {fileID: 0}
  - {fileID: 0}
  - {fileID: 0}
  - {fileID: 0}
  - {fileID: 0}
  - {fileID: 0}
  - {fileID: 0}
  - {fileID: 0}
  - {fileID: 0}
  - {fileID: 0}
  - {fileID: 0}
  - {fileID: 0}
  - {fileID: 0}
  - {fileID: 0}
  - {fileID: 0}
  - {fileID: 0}
  - {fileID: 0}
  - {fileID: 0}
  - {fileID: 0}
  - {fileID: 0}
  - {fileID: 0}
  - {fileID: 0}
  - {fileID: 0}
  - {fileID: 0}
  tileInfo:
  - stringVal: 
    intVal: 0
    floatVal: 0
    enablePrefabOffset: 0
  - stringVal: 
    intVal: 0
    floatVal: 0
    enablePrefabOffset: 0
  - stringVal: 
    intVal: 0
    floatVal: 0
    enablePrefabOffset: 0
  - stringVal: 
    intVal: 0
    floatVal: 0
    enablePrefabOffset: 0
  - stringVal: 
    intVal: 0
    floatVal: 0
    enablePrefabOffset: 0
  - stringVal: 
    intVal: 0
    floatVal: 0
    enablePrefabOffset: 0
  - stringVal: 
    intVal: 0
    floatVal: 0
    enablePrefabOffset: 0
  - stringVal: 
    intVal: 0
    floatVal: 0
    enablePrefabOffset: 0
  - stringVal: 
    intVal: 0
    floatVal: 0
    enablePrefabOffset: 0
  - stringVal: 
    intVal: 0
    floatVal: 0
    enablePrefabOffset: 0
  - stringVal: 
    intVal: 0
    floatVal: 0
    enablePrefabOffset: 0
  - stringVal: 
    intVal: 0
    floatVal: 0
    enablePrefabOffset: 0
  - stringVal: 
    intVal: 0
    floatVal: 0
    enablePrefabOffset: 0
  - stringVal: 
    intVal: 0
    floatVal: 0
    enablePrefabOffset: 0
  - stringVal: 
    intVal: 0
    floatVal: 0
    enablePrefabOffset: 0
  - stringVal: 
    intVal: 0
    floatVal: 0
    enablePrefabOffset: 0
  - stringVal: 
    intVal: 0
    floatVal: 0
    enablePrefabOffset: 0
  - stringVal: 
    intVal: 0
    floatVal: 0
    enablePrefabOffset: 0
  - stringVal: 
    intVal: 0
    floatVal: 0
    enablePrefabOffset: 0
  - stringVal: 
    intVal: 0
    floatVal: 0
    enablePrefabOffset: 0
  - stringVal: 
    intVal: 0
    floatVal: 0
    enablePrefabOffset: 0
  - stringVal: 
    intVal: 0
    floatVal: 0
    enablePrefabOffset: 0
  - stringVal: 
    intVal: 0
    floatVal: 0
    enablePrefabOffset: 0
  - stringVal: 
    intVal: 0
    floatVal: 0
    enablePrefabOffset: 0
  - stringVal: 
    intVal: 0
    floatVal: 0
    enablePrefabOffset: 0
  - stringVal: 
    intVal: 0
    floatVal: 0
    enablePrefabOffset: 0
  - stringVal: 
    intVal: 0
    floatVal: 0
    enablePrefabOffset: 0
  - stringVal: 
    intVal: 0
    floatVal: 0
    enablePrefabOffset: 0
  - stringVal: 
    intVal: 0
    floatVal: 0
    enablePrefabOffset: 0
  - stringVal: 
    intVal: 0
    floatVal: 0
    enablePrefabOffset: 0
  - stringVal: 
    intVal: 0
    floatVal: 0
    enablePrefabOffset: 0
  - stringVal: 
    intVal: 0
    floatVal: 0
    enablePrefabOffset: 0
  - stringVal: 
    intVal: 0
    floatVal: 0
    enablePrefabOffset: 0
  - stringVal: 
    intVal: 0
    floatVal: 0
    enablePrefabOffset: 0
  - stringVal: 
    intVal: 0
    floatVal: 0
    enablePrefabOffset: 0
  - stringVal: 
    intVal: 0
    floatVal: 0
    enablePrefabOffset: 0
  - stringVal: 
    intVal: 0
    floatVal: 0
    enablePrefabOffset: 0
  - stringVal: 
    intVal: 0
    floatVal: 0
    enablePrefabOffset: 0
  - stringVal: 
    intVal: 0
    floatVal: 0
    enablePrefabOffset: 0
  - stringVal: 
    intVal: 0
    floatVal: 0
    enablePrefabOffset: 0
  - stringVal: 
    intVal: 0
    floatVal: 0
    enablePrefabOffset: 0
  - stringVal: 
    intVal: 0
    floatVal: 0
    enablePrefabOffset: 0
  - stringVal: 
    intVal: 0
    floatVal: 0
    enablePrefabOffset: 0
  - stringVal: 
    intVal: 0
    floatVal: 0
    enablePrefabOffset: 0
  - stringVal: 
    intVal: 0
    floatVal: 0
    enablePrefabOffset: 0
  - stringVal: 
    intVal: 0
    floatVal: 0
    enablePrefabOffset: 0
  - stringVal: 
    intVal: 0
    floatVal: 0
    enablePrefabOffset: 0
  - stringVal: 
    intVal: 0
    floatVal: 0
    enablePrefabOffset: 0
  - stringVal: 
    intVal: 0
    floatVal: 0
    enablePrefabOffset: 0
  - stringVal: 
    intVal: 0
    floatVal: 0
    enablePrefabOffset: 0
  - stringVal: 
    intVal: 0
    floatVal: 0
    enablePrefabOffset: 0
  - stringVal: 
    intVal: 0
    floatVal: 0
    enablePrefabOffset: 0
  - stringVal: 
    intVal: 0
    floatVal: 0
    enablePrefabOffset: 0
  - stringVal: 
    intVal: 0
    floatVal: 0
    enablePrefabOffset: 0
  - stringVal: 
    intVal: 0
    floatVal: 0
    enablePrefabOffset: 0
  - stringVal: 
    intVal: 0
    floatVal: 0
    enablePrefabOffset: 0
  - stringVal: 
    intVal: 0
    floatVal: 0
    enablePrefabOffset: 0
  - stringVal: 
    intVal: 0
    floatVal: 0
    enablePrefabOffset: 0
  - stringVal: 
    intVal: 0
    floatVal: 0
    enablePrefabOffset: 0
  - stringVal: 
    intVal: 0
    floatVal: 0
    enablePrefabOffset: 0
  - stringVal: 
    intVal: 0
    floatVal: 0
    enablePrefabOffset: 0
  - stringVal: 
    intVal: 0
    floatVal: 0
    enablePrefabOffset: 0
  - stringVal: 
    intVal: 0
    floatVal: 0
    enablePrefabOffset: 0
  - stringVal: 
    intVal: 0
    floatVal: 0
    enablePrefabOffset: 0
  - stringVal: 
    intVal: 0
    floatVal: 0
    enablePrefabOffset: 0
  - stringVal: 
    intVal: 0
    floatVal: 0
    enablePrefabOffset: 0
  - stringVal: 
    intVal: 0
    floatVal: 0
    enablePrefabOffset: 0
  - stringVal: 
    intVal: 0
    floatVal: 0
    enablePrefabOffset: 0
  - stringVal: 
    intVal: 0
    floatVal: 0
    enablePrefabOffset: 0
  - stringVal: 
    intVal: 0
    floatVal: 0
    enablePrefabOffset: 0
  - stringVal: 
    intVal: 0
    floatVal: 0
    enablePrefabOffset: 0
  - stringVal: 
    intVal: 0
    floatVal: 0
    enablePrefabOffset: 0
  - stringVal: 
    intVal: 0
    floatVal: 0
    enablePrefabOffset: 0
  - stringVal: 
    intVal: 0
    floatVal: 0
    enablePrefabOffset: 0
  - stringVal: 
    intVal: 0
    floatVal: 0
    enablePrefabOffset: 0
  - stringVal: 
    intVal: 0
    floatVal: 0
    enablePrefabOffset: 0
  - stringVal: 
    intVal: 0
    floatVal: 0
    enablePrefabOffset: 0
  - stringVal: 
    intVal: 0
    floatVal: 0
    enablePrefabOffset: 0
  - stringVal: 
    intVal: 0
    floatVal: 0
    enablePrefabOffset: 0
  - stringVal: 
    intVal: 0
    floatVal: 0
    enablePrefabOffset: 0
  - stringVal: 
    intVal: 0
    floatVal: 0
    enablePrefabOffset: 0
  - stringVal: 
    intVal: 0
    floatVal: 0
    enablePrefabOffset: 0
  - stringVal: 
    intVal: 0
    floatVal: 0
    enablePrefabOffset: 0
  - stringVal: 
    intVal: 0
    floatVal: 0
    enablePrefabOffset: 0
  - stringVal: 
    intVal: 0
    floatVal: 0
    enablePrefabOffset: 0
  - stringVal: 
    intVal: 0
    floatVal: 0
    enablePrefabOffset: 0
  - stringVal: 
    intVal: 0
    floatVal: 0
    enablePrefabOffset: 0
  - stringVal: 
    intVal: 0
    floatVal: 0
    enablePrefabOffset: 0
  - stringVal: 
    intVal: 0
    floatVal: 0
    enablePrefabOffset: 0
  - stringVal: 
    intVal: 0
    floatVal: 0
    enablePrefabOffset: 0
  - stringVal: 
    intVal: 0
    floatVal: 0
    enablePrefabOffset: 0
  - stringVal: 
    intVal: 0
    floatVal: 0
    enablePrefabOffset: 0
  - stringVal: 
    intVal: 0
    floatVal: 0
    enablePrefabOffset: 0
  - stringVal: 
    intVal: 0
    floatVal: 0
    enablePrefabOffset: 0
  - stringVal: 
    intVal: 0
    floatVal: 0
    enablePrefabOffset: 0
  - stringVal: 
    intVal: 0
    floatVal: 0
    enablePrefabOffset: 0
  - stringVal: 
    intVal: 0
    floatVal: 0
    enablePrefabOffset: 0
  - stringVal: 
    intVal: 0
    floatVal: 0
    enablePrefabOffset: 0
  - stringVal: 
    intVal: 0
    floatVal: 0
    enablePrefabOffset: 0
  - stringVal: 
    intVal: 0
    floatVal: 0
    enablePrefabOffset: 0
  - stringVal: 
    intVal: 0
    floatVal: 0
    enablePrefabOffset: 0
  - stringVal: 
    intVal: 0
    floatVal: 0
    enablePrefabOffset: 0
  - stringVal: 
    intVal: 0
    floatVal: 0
    enablePrefabOffset: 0
  - stringVal: 
    intVal: 0
    floatVal: 0
    enablePrefabOffset: 0
  - stringVal: 
    intVal: 0
    floatVal: 0
    enablePrefabOffset: 0
  - stringVal: 
    intVal: 0
    floatVal: 0
    enablePrefabOffset: 0
  - stringVal: 
    intVal: 0
    floatVal: 0
    enablePrefabOffset: 0
  - stringVal: 
    intVal: 0
    floatVal: 0
    enablePrefabOffset: 0
  - stringVal: 
    intVal: 0
    floatVal: 0
    enablePrefabOffset: 0
  - stringVal: 
    intVal: 0
    floatVal: 0
    enablePrefabOffset: 0
  - stringVal: 
    intVal: 0
    floatVal: 0
    enablePrefabOffset: 0
  - stringVal: 
    intVal: 0
    floatVal: 0
    enablePrefabOffset: 0
  - stringVal: 
    intVal: 0
    floatVal: 0
    enablePrefabOffset: 0
  - stringVal: 
    intVal: 0
    floatVal: 0
    enablePrefabOffset: 0
  - stringVal: 
    intVal: 0
    floatVal: 0
    enablePrefabOffset: 0
  - stringVal: 
    intVal: 0
    floatVal: 0
    enablePrefabOffset: 0
  - stringVal: 
    intVal: 0
    floatVal: 0
    enablePrefabOffset: 0
  - stringVal: 
    intVal: 0
    floatVal: 0
    enablePrefabOffset: 0
  - stringVal: 
    intVal: 0
    floatVal: 0
    enablePrefabOffset: 0
  - stringVal: 
    intVal: 0
    floatVal: 0
    enablePrefabOffset: 0
  - stringVal: 
    intVal: 0
    floatVal: 0
    enablePrefabOffset: 0
  - stringVal: 
    intVal: 0
    floatVal: 0
    enablePrefabOffset: 0
  - stringVal: 
    intVal: 0
    floatVal: 0
    enablePrefabOffset: 0
  - stringVal: 
    intVal: 0
    floatVal: 0
    enablePrefabOffset: 0
  - stringVal: 
    intVal: 0
    floatVal: 0
    enablePrefabOffset: 0
  - stringVal: 
    intVal: 0
    floatVal: 0
    enablePrefabOffset: 0
  - stringVal: 
    intVal: 0
    floatVal: 0
    enablePrefabOffset: 0
  - stringVal: 
    intVal: 0
    floatVal: 0
    enablePrefabOffset: 0
  - stringVal: 
    intVal: 0
    floatVal: 0
    enablePrefabOffset: 0
  - stringVal: 
    intVal: 0
    floatVal: 0
    enablePrefabOffset: 0
  - stringVal: 
    intVal: 0
    floatVal: 0
    enablePrefabOffset: 0
  - stringVal: 
    intVal: 0
    floatVal: 0
    enablePrefabOffset: 0
  - stringVal: 
    intVal: 0
    floatVal: 0
    enablePrefabOffset: 0
  - stringVal: 
    intVal: 0
    floatVal: 0
    enablePrefabOffset: 0
  - stringVal: 
    intVal: 0
    floatVal: 0
    enablePrefabOffset: 0
  - stringVal: 
    intVal: 0
    floatVal: 0
    enablePrefabOffset: 0
  - stringVal: 
    intVal: 0
    floatVal: 0
    enablePrefabOffset: 0
  - stringVal: 
    intVal: 0
    floatVal: 0
    enablePrefabOffset: 0
  - stringVal: 
    intVal: 0
    floatVal: 0
    enablePrefabOffset: 0
  - stringVal: 
    intVal: 0
    floatVal: 0
    enablePrefabOffset: 0
  - stringVal: 
    intVal: 0
    floatVal: 0
    enablePrefabOffset: 0
  - stringVal: 
    intVal: 0
    floatVal: 0
    enablePrefabOffset: 0
  - stringVal: 
    intVal: 0
    floatVal: 0
    enablePrefabOffset: 0
  - stringVal: 
    intVal: 0
    floatVal: 0
    enablePrefabOffset: 0
  - stringVal: 
    intVal: 0
    floatVal: 0
    enablePrefabOffset: 0
  - stringVal: 
    intVal: 0
    floatVal: 0
    enablePrefabOffset: 0
  - stringVal: 
    intVal: 0
    floatVal: 0
    enablePrefabOffset: 0
  - stringVal: 
    intVal: 0
    floatVal: 0
    enablePrefabOffset: 0
  - stringVal: 
    intVal: 0
    floatVal: 0
    enablePrefabOffset: 0
  - stringVal: 
    intVal: 0
    floatVal: 0
    enablePrefabOffset: 0
  - stringVal: 
    intVal: 0
    floatVal: 0
    enablePrefabOffset: 0
  - stringVal: 
    intVal: 0
    floatVal: 0
    enablePrefabOffset: 0
  - stringVal: 
    intVal: 0
    floatVal: 0
    enablePrefabOffset: 0
  - stringVal: 
    intVal: 0
    floatVal: 0
    enablePrefabOffset: 0
  - stringVal: 
    intVal: 0
    floatVal: 0
    enablePrefabOffset: 0
  - stringVal: 
    intVal: 0
    floatVal: 0
    enablePrefabOffset: 0
  - stringVal: 
    intVal: 0
    floatVal: 0
    enablePrefabOffset: 0
  - stringVal: 
    intVal: 0
    floatVal: 0
    enablePrefabOffset: 0
  - stringVal: 
    intVal: 0
    floatVal: 0
    enablePrefabOffset: 0
  - stringVal: 
    intVal: 0
    floatVal: 0
    enablePrefabOffset: 0
  - stringVal: 
    intVal: 0
    floatVal: 0
    enablePrefabOffset: 0
  - stringVal: 
    intVal: 0
    floatVal: 0
    enablePrefabOffset: 0
  - stringVal: 
    intVal: 0
    floatVal: 0
    enablePrefabOffset: 0
  - stringVal: 
    intVal: 0
    floatVal: 0
    enablePrefabOffset: 0
  - stringVal: 
    intVal: 0
    floatVal: 0
    enablePrefabOffset: 0
  - stringVal: 
    intVal: 0
    floatVal: 0
    enablePrefabOffset: 0
  - stringVal: 
    intVal: 0
    floatVal: 0
    enablePrefabOffset: 0
  - stringVal: 
    intVal: 0
    floatVal: 0
    enablePrefabOffset: 0
  - stringVal: 
    intVal: 0
    floatVal: 0
    enablePrefabOffset: 0
  - stringVal: 
    intVal: 0
    floatVal: 0
    enablePrefabOffset: 0
  - stringVal: 
    intVal: 0
    floatVal: 0
    enablePrefabOffset: 0
  - stringVal: 
    intVal: 0
    floatVal: 0
    enablePrefabOffset: 0
  - stringVal: 
    intVal: 0
    floatVal: 0
    enablePrefabOffset: 0
  - stringVal: 
    intVal: 0
    floatVal: 0
    enablePrefabOffset: 0
  - stringVal: 
    intVal: 0
    floatVal: 0
    enablePrefabOffset: 0
  - stringVal: 
    intVal: 0
    floatVal: 0
    enablePrefabOffset: 0
  - stringVal: 
    intVal: 0
    floatVal: 0
    enablePrefabOffset: 0
  - stringVal: 
    intVal: 0
    floatVal: 0
    enablePrefabOffset: 0
  - stringVal: 
    intVal: 0
    floatVal: 0
    enablePrefabOffset: 0
  - stringVal: 
    intVal: 0
    floatVal: 0
    enablePrefabOffset: 0
  - stringVal: 
    intVal: 0
    floatVal: 0
    enablePrefabOffset: 0
  - stringVal: 
    intVal: 0
    floatVal: 0
    enablePrefabOffset: 0
  - stringVal: 
    intVal: 0
    floatVal: 0
    enablePrefabOffset: 0
  - stringVal: 
    intVal: 0
    floatVal: 0
    enablePrefabOffset: 0
  - stringVal: 
    intVal: 0
    floatVal: 0
    enablePrefabOffset: 0
  - stringVal: 
    intVal: 0
    floatVal: 0
    enablePrefabOffset: 0
  - stringVal: 
    intVal: 0
    floatVal: 0
    enablePrefabOffset: 0
  - stringVal: 
    intVal: 0
    floatVal: 0
    enablePrefabOffset: 0
  - stringVal: 
    intVal: 0
    floatVal: 0
    enablePrefabOffset: 0
  - stringVal: 
    intVal: 0
    floatVal: 0
    enablePrefabOffset: 0
  - stringVal: 
    intVal: 0
    floatVal: 0
    enablePrefabOffset: 0
  - stringVal: 
    intVal: 0
    floatVal: 0
    enablePrefabOffset: 0
  - stringVal: 
    intVal: 0
    floatVal: 0
    enablePrefabOffset: 0
  - stringVal: 
    intVal: 0
    floatVal: 0
    enablePrefabOffset: 0
  - stringVal: 
    intVal: 0
    floatVal: 0
    enablePrefabOffset: 0
  - stringVal: 
    intVal: 0
    floatVal: 0
    enablePrefabOffset: 0
  - stringVal: 
    intVal: 0
    floatVal: 0
    enablePrefabOffset: 0
  - stringVal: 
    intVal: 0
    floatVal: 0
    enablePrefabOffset: 0
  - stringVal: 
    intVal: 0
    floatVal: 0
    enablePrefabOffset: 0
  - stringVal: 
    intVal: 0
    floatVal: 0
    enablePrefabOffset: 0
  - stringVal: 
    intVal: 0
    floatVal: 0
    enablePrefabOffset: 0
  - stringVal: 
    intVal: 0
    floatVal: 0
    enablePrefabOffset: 0
  - stringVal: 
    intVal: 0
    floatVal: 0
    enablePrefabOffset: 0
  - stringVal: 
    intVal: 0
    floatVal: 0
    enablePrefabOffset: 0
  - stringVal: 
    intVal: 0
    floatVal: 0
    enablePrefabOffset: 0
  - stringVal: 
    intVal: 0
    floatVal: 0
    enablePrefabOffset: 0
  - stringVal: 
    intVal: 0
    floatVal: 0
    enablePrefabOffset: 0
  - stringVal: 
    intVal: 0
    floatVal: 0
    enablePrefabOffset: 0
  - stringVal: 
    intVal: 0
    floatVal: 0
    enablePrefabOffset: 0
  - stringVal: 
    intVal: 0
    floatVal: 0
    enablePrefabOffset: 0
  - stringVal: 
    intVal: 0
    floatVal: 0
    enablePrefabOffset: 0
  - stringVal: 
    intVal: 0
    floatVal: 0
    enablePrefabOffset: 0
  - stringVal: 
    intVal: 0
    floatVal: 0
    enablePrefabOffset: 0
  - stringVal: 
    intVal: 0
    floatVal: 0
    enablePrefabOffset: 0
  - stringVal: 
    intVal: 0
    floatVal: 0
    enablePrefabOffset: 0
  - stringVal: 
    intVal: 0
    floatVal: 0
    enablePrefabOffset: 0
  - stringVal: 
    intVal: 0
    floatVal: 0
    enablePrefabOffset: 0
  - stringVal: 
    intVal: 0
    floatVal: 0
    enablePrefabOffset: 0
  - stringVal: 
    intVal: 0
    floatVal: 0
    enablePrefabOffset: 0
  - stringVal: 
    intVal: 0
    floatVal: 0
    enablePrefabOffset: 0
  - stringVal: 
    intVal: 0
    floatVal: 0
    enablePrefabOffset: 0
  - stringVal: 
    intVal: 0
    floatVal: 0
    enablePrefabOffset: 0
  - stringVal: 
    intVal: 0
    floatVal: 0
    enablePrefabOffset: 0
  - stringVal: 
    intVal: 0
    floatVal: 0
    enablePrefabOffset: 0
  - stringVal: 
    intVal: 0
    floatVal: 0
    enablePrefabOffset: 0
  - stringVal: 
    intVal: 0
    floatVal: 0
    enablePrefabOffset: 0
  - stringVal: 
    intVal: 0
    floatVal: 0
    enablePrefabOffset: 0
  - stringVal: 
    intVal: 0
    floatVal: 0
    enablePrefabOffset: 0
  - stringVal: 
    intVal: 0
    floatVal: 0
    enablePrefabOffset: 0
  - stringVal: 
    intVal: 0
    floatVal: 0
    enablePrefabOffset: 0
  - stringVal: 
    intVal: 0
    floatVal: 0
    enablePrefabOffset: 0
  - stringVal: 
    intVal: 0
    floatVal: 0
    enablePrefabOffset: 0
  - stringVal: 
    intVal: 0
    floatVal: 0
    enablePrefabOffset: 0
  - stringVal: 
    intVal: 0
    floatVal: 0
    enablePrefabOffset: 0
  - stringVal: 
    intVal: 0
    floatVal: 0
    enablePrefabOffset: 0
  - stringVal: 
    intVal: 0
    floatVal: 0
    enablePrefabOffset: 0
  - stringVal: 
    intVal: 0
    floatVal: 0
    enablePrefabOffset: 0
  - stringVal: 
    intVal: 0
    floatVal: 0
    enablePrefabOffset: 0
  - stringVal: 
    intVal: 0
    floatVal: 0
    enablePrefabOffset: 0
  - stringVal: 
    intVal: 0
    floatVal: 0
    enablePrefabOffset: 0
  - stringVal: 
    intVal: 0
    floatVal: 0
    enablePrefabOffset: 0
  - stringVal: 
    intVal: 0
    floatVal: 0
    enablePrefabOffset: 0
  - stringVal: 
    intVal: 0
    floatVal: 0
    enablePrefabOffset: 0
  - stringVal: 
    intVal: 0
    floatVal: 0
    enablePrefabOffset: 0
  - stringVal: 
    intVal: 0
    floatVal: 0
    enablePrefabOffset: 0
  - stringVal: 
    intVal: 0
    floatVal: 0
    enablePrefabOffset: 0
  - stringVal: 
    intVal: 0
    floatVal: 0
    enablePrefabOffset: 0
  - stringVal: 
    intVal: 0
    floatVal: 0
    enablePrefabOffset: 0
  - stringVal: 
    intVal: 0
    floatVal: 0
    enablePrefabOffset: 0
  - stringVal: 
    intVal: 0
    floatVal: 0
    enablePrefabOffset: 0
  - stringVal: 
    intVal: 0
    floatVal: 0
    enablePrefabOffset: 0
  - stringVal: 
    intVal: 0
    floatVal: 0
    enablePrefabOffset: 0
  - stringVal: 
    intVal: 0
    floatVal: 0
    enablePrefabOffset: 0
  - stringVal: 
    intVal: 0
    floatVal: 0
    enablePrefabOffset: 0
  - stringVal: 
    intVal: 0
    floatVal: 0
    enablePrefabOffset: 0
  - stringVal: 
    intVal: 0
    floatVal: 0
    enablePrefabOffset: 0
  - stringVal: 
    intVal: 0
    floatVal: 0
    enablePrefabOffset: 0
  - stringVal: 
    intVal: 0
    floatVal: 0
    enablePrefabOffset: 0
  - stringVal: 
    intVal: 0
    floatVal: 0
    enablePrefabOffset: 0
  - stringVal: 
    intVal: 0
    floatVal: 0
    enablePrefabOffset: 0
  - stringVal: 
    intVal: 0
    floatVal: 0
    enablePrefabOffset: 0
  - stringVal: 
    intVal: 0
    floatVal: 0
    enablePrefabOffset: 0
  - stringVal: 
    intVal: 0
    floatVal: 0
    enablePrefabOffset: 0
  - stringVal: 
    intVal: 0
    floatVal: 0
    enablePrefabOffset: 0
  - stringVal: 
    intVal: 0
    floatVal: 0
    enablePrefabOffset: 0
  - stringVal: 
    intVal: 0
    floatVal: 0
    enablePrefabOffset: 0
  - stringVal: 
    intVal: 0
    floatVal: 0
    enablePrefabOffset: 0
  - stringVal: 
    intVal: 0
    floatVal: 0
    enablePrefabOffset: 0
  - stringVal: 
    intVal: 0
    floatVal: 0
    enablePrefabOffset: 0
  - stringVal: 
    intVal: 0
    floatVal: 0
    enablePrefabOffset: 0
  - stringVal: 
    intVal: 0
    floatVal: 0
    enablePrefabOffset: 0
  - stringVal: 
    intVal: 0
    floatVal: 0
    enablePrefabOffset: 0
  - stringVal: 
    intVal: 0
    floatVal: 0
    enablePrefabOffset: 0
  - stringVal: 
    intVal: 0
    floatVal: 0
    enablePrefabOffset: 0
  - stringVal: 
    intVal: 0
    floatVal: 0
    enablePrefabOffset: 0
  - stringVal: 
    intVal: 0
    floatVal: 0
    enablePrefabOffset: 0
  - stringVal: 
    intVal: 0
    floatVal: 0
    enablePrefabOffset: 0
  - stringVal: 
    intVal: 0
    floatVal: 0
    enablePrefabOffset: 0
  - stringVal: 
    intVal: 0
    floatVal: 0
    enablePrefabOffset: 0
  - stringVal: 
    intVal: 0
    floatVal: 0
    enablePrefabOffset: 0
  - stringVal: 
    intVal: 0
    floatVal: 0
    enablePrefabOffset: 0
  - stringVal: 
    intVal: 0
    floatVal: 0
    enablePrefabOffset: 0
  - stringVal: 
    intVal: 0
    floatVal: 0
    enablePrefabOffset: 0
  - stringVal: 
    intVal: 0
    floatVal: 0
    enablePrefabOffset: 0
  - stringVal: 
    intVal: 0
    floatVal: 0
    enablePrefabOffset: 0
  - stringVal: 
    intVal: 0
    floatVal: 0
    enablePrefabOffset: 0
  - stringVal: 
    intVal: 0
    floatVal: 0
    enablePrefabOffset: 0
  - stringVal: 
    intVal: 0
    floatVal: 0
    enablePrefabOffset: 0
  - stringVal: 
    intVal: 0
    floatVal: 0
    enablePrefabOffset: 0
  - stringVal: 
    intVal: 0
    floatVal: 0
    enablePrefabOffset: 0
  - stringVal: 
    intVal: 0
    floatVal: 0
    enablePrefabOffset: 0
  - stringVal: 
    intVal: 0
    floatVal: 0
    enablePrefabOffset: 0
  - stringVal: 
    intVal: 0
    floatVal: 0
    enablePrefabOffset: 0
  - stringVal: 
    intVal: 0
    floatVal: 0
    enablePrefabOffset: 0
  - stringVal: 
    intVal: 0
    floatVal: 0
    enablePrefabOffset: 0
  - stringVal: 
    intVal: 0
    floatVal: 0
    enablePrefabOffset: 0
  - stringVal: 
    intVal: 0
    floatVal: 0
    enablePrefabOffset: 0
  - stringVal: 
    intVal: 0
    floatVal: 0
    enablePrefabOffset: 0
  - stringVal: 
    intVal: 0
    floatVal: 0
    enablePrefabOffset: 0
  - stringVal: 
    intVal: 0
    floatVal: 0
    enablePrefabOffset: 0
  - stringVal: 
    intVal: 0
    floatVal: 0
    enablePrefabOffset: 0
  - stringVal: 
    intVal: 0
    floatVal: 0
    enablePrefabOffset: 0
  - stringVal: 
    intVal: 0
    floatVal: 0
    enablePrefabOffset: 0
  - stringVal: 
    intVal: 0
    floatVal: 0
    enablePrefabOffset: 0
  - stringVal: 
    intVal: 0
    floatVal: 0
    enablePrefabOffset: 0
  - stringVal: 
    intVal: 0
    floatVal: 0
    enablePrefabOffset: 0
  - stringVal: 
    intVal: 0
    floatVal: 0
    enablePrefabOffset: 0
  - stringVal: 
    intVal: 0
    floatVal: 0
    enablePrefabOffset: 0
  - stringVal: 
    intVal: 0
    floatVal: 0
    enablePrefabOffset: 0
  - stringVal: 
    intVal: 0
    floatVal: 0
    enablePrefabOffset: 0
  - stringVal: 
    intVal: 0
    floatVal: 0
    enablePrefabOffset: 0
  - stringVal: 
    intVal: 0
    floatVal: 0
    enablePrefabOffset: 0
  - stringVal: 
    intVal: 0
    floatVal: 0
    enablePrefabOffset: 0
  - stringVal: 
    intVal: 0
    floatVal: 0
    enablePrefabOffset: 0
  - stringVal: 
    intVal: 0
    floatVal: 0
    enablePrefabOffset: 0
  - stringVal: 
    intVal: 0
    floatVal: 0
    enablePrefabOffset: 0
  - stringVal: 
    intVal: 0
    floatVal: 0
    enablePrefabOffset: 0
  - stringVal: 
    intVal: 0
    floatVal: 0
    enablePrefabOffset: 0
  - stringVal: 
    intVal: 0
    floatVal: 0
    enablePrefabOffset: 0
  - stringVal: 
    intVal: 0
    floatVal: 0
    enablePrefabOffset: 0
  - stringVal: 
    intVal: 0
    floatVal: 0
    enablePrefabOffset: 0
  - stringVal: 
    intVal: 0
    floatVal: 0
    enablePrefabOffset: 0
  - stringVal: 
    intVal: 0
    floatVal: 0
    enablePrefabOffset: 0
  - stringVal: 
    intVal: 0
    floatVal: 0
    enablePrefabOffset: 0
  - stringVal: 
    intVal: 0
    floatVal: 0
    enablePrefabOffset: 0
  - stringVal: 
    intVal: 0
    floatVal: 0
    enablePrefabOffset: 0
  - stringVal: 
    intVal: 0
    floatVal: 0
    enablePrefabOffset: 0
  - stringVal: 
    intVal: 0
    floatVal: 0
    enablePrefabOffset: 0
  - stringVal: 
    intVal: 0
    floatVal: 0
    enablePrefabOffset: 0
  - stringVal: 
    intVal: 0
    floatVal: 0
    enablePrefabOffset: 0
  - stringVal: 
    intVal: 0
    floatVal: 0
    enablePrefabOffset: 0
  - stringVal: 
    intVal: 0
    floatVal: 0
    enablePrefabOffset: 0
  - stringVal: 
    intVal: 0
    floatVal: 0
    enablePrefabOffset: 0
  - stringVal: 
    intVal: 0
    floatVal: 0
    enablePrefabOffset: 0
  - stringVal: 
    intVal: 0
    floatVal: 0
    enablePrefabOffset: 0
  - stringVal: 
    intVal: 0
    floatVal: 0
    enablePrefabOffset: 0
  - stringVal: 
    intVal: 0
    floatVal: 0
    enablePrefabOffset: 0
  - stringVal: 
    intVal: 0
    floatVal: 0
    enablePrefabOffset: 0
  - stringVal: 
    intVal: 0
    floatVal: 0
    enablePrefabOffset: 0
  - stringVal: 
    intVal: 0
    floatVal: 0
    enablePrefabOffset: 0
  - stringVal: 
    intVal: 0
    floatVal: 0
    enablePrefabOffset: 0
  - stringVal: 
    intVal: 0
    floatVal: 0
    enablePrefabOffset: 0
  - stringVal: 
    intVal: 0
    floatVal: 0
    enablePrefabOffset: 0
  - stringVal: 
    intVal: 0
    floatVal: 0
    enablePrefabOffset: 0
  - stringVal: 
    intVal: 0
    floatVal: 0
    enablePrefabOffset: 0
  - stringVal: 
    intVal: 0
    floatVal: 0
    enablePrefabOffset: 0
  - stringVal: 
    intVal: 0
    floatVal: 0
    enablePrefabOffset: 0
  - stringVal: 
    intVal: 0
    floatVal: 0
    enablePrefabOffset: 0
  - stringVal: 
    intVal: 0
    floatVal: 0
    enablePrefabOffset: 0
  - stringVal: 
    intVal: 0
    floatVal: 0
    enablePrefabOffset: 0
  - stringVal: 
    intVal: 0
    floatVal: 0
    enablePrefabOffset: 0
  - stringVal: 
    intVal: 0
    floatVal: 0
    enablePrefabOffset: 0
  - stringVal: 
    intVal: 0
    floatVal: 0
    enablePrefabOffset: 0
  - stringVal: 
    intVal: 0
    floatVal: 0
    enablePrefabOffset: 0
  - stringVal: 
    intVal: 0
    floatVal: 0
    enablePrefabOffset: 0
  - stringVal: 
    intVal: 0
    floatVal: 0
    enablePrefabOffset: 0
  - stringVal: 
    intVal: 0
    floatVal: 0
    enablePrefabOffset: 0
  - stringVal: 
    intVal: 0
    floatVal: 0
    enablePrefabOffset: 0
  - stringVal: 
    intVal: 0
    floatVal: 0
    enablePrefabOffset: 0
  - stringVal: 
    intVal: 0
    floatVal: 0
    enablePrefabOffset: 0
  - stringVal: 
    intVal: 0
    floatVal: 0
    enablePrefabOffset: 0
  - stringVal: 
    intVal: 0
    floatVal: 0
    enablePrefabOffset: 0
  - stringVal: 
    intVal: 0
    floatVal: 0
    enablePrefabOffset: 0
  - stringVal: 
    intVal: 0
    floatVal: 0
    enablePrefabOffset: 0
  - stringVal: 
    intVal: 0
    floatVal: 0
    enablePrefabOffset: 0
  - stringVal: 
    intVal: 0
    floatVal: 0
    enablePrefabOffset: 0
  - stringVal: 
    intVal: 0
    floatVal: 0
    enablePrefabOffset: 0
  - stringVal: 
    intVal: 0
    floatVal: 0
    enablePrefabOffset: 0
  - stringVal: 
    intVal: 0
    floatVal: 0
    enablePrefabOffset: 0
  - stringVal: 
    intVal: 0
    floatVal: 0
    enablePrefabOffset: 0
  - stringVal: 
    intVal: 0
    floatVal: 0
    enablePrefabOffset: 0
  - stringVal: 
    intVal: 0
    floatVal: 0
    enablePrefabOffset: 0
  - stringVal: 
    intVal: 0
    floatVal: 0
    enablePrefabOffset: 0
  - stringVal: 
    intVal: 0
    floatVal: 0
    enablePrefabOffset: 0
  - stringVal: 
    intVal: 0
    floatVal: 0
    enablePrefabOffset: 0
  - stringVal: 
    intVal: 0
    floatVal: 0
    enablePrefabOffset: 0
  - stringVal: 
    intVal: 0
    floatVal: 0
    enablePrefabOffset: 0
  - stringVal: 
    intVal: 0
    floatVal: 0
    enablePrefabOffset: 0
  - stringVal: 
    intVal: 0
    floatVal: 0
    enablePrefabOffset: 0
  - stringVal: 
    intVal: 0
    floatVal: 0
    enablePrefabOffset: 0
  - stringVal: 
    intVal: 0
    floatVal: 0
    enablePrefabOffset: 0
  - stringVal: 
    intVal: 0
    floatVal: 0
    enablePrefabOffset: 0
  - stringVal: 
    intVal: 0
    floatVal: 0
    enablePrefabOffset: 0
  - stringVal: 
    intVal: 0
    floatVal: 0
    enablePrefabOffset: 0
  - stringVal: 
    intVal: 0
    floatVal: 0
    enablePrefabOffset: 0
  - stringVal: 
    intVal: 0
    floatVal: 0
    enablePrefabOffset: 0
  - stringVal: 
    intVal: 0
    floatVal: 0
    enablePrefabOffset: 0
  - stringVal: 
    intVal: 0
    floatVal: 0
    enablePrefabOffset: 0
  - stringVal: 
    intVal: 0
    floatVal: 0
    enablePrefabOffset: 0
  - stringVal: 
    intVal: 0
    floatVal: 0
    enablePrefabOffset: 0
  - stringVal: 
    intVal: 0
    floatVal: 0
    enablePrefabOffset: 0
  - stringVal: 
    intVal: 0
    floatVal: 0
    enablePrefabOffset: 0
  - stringVal: 
    intVal: 0
    floatVal: 0
    enablePrefabOffset: 0
  - stringVal: 
    intVal: 0
    floatVal: 0
    enablePrefabOffset: 0
  - stringVal: 
    intVal: 0
    floatVal: 0
    enablePrefabOffset: 0
  - stringVal: 
    intVal: 0
    floatVal: 0
    enablePrefabOffset: 0
  - stringVal: 
    intVal: 0
    floatVal: 0
    enablePrefabOffset: 0
  - stringVal: 
    intVal: 0
    floatVal: 0
    enablePrefabOffset: 0
  - stringVal: 
    intVal: 0
    floatVal: 0
    enablePrefabOffset: 0
  - stringVal: 
    intVal: 0
    floatVal: 0
    enablePrefabOffset: 0
  - stringVal: 
    intVal: 0
    floatVal: 0
    enablePrefabOffset: 0
  - stringVal: 
    intVal: 0
    floatVal: 0
    enablePrefabOffset: 0
  - stringVal: 
    intVal: 0
    floatVal: 0
    enablePrefabOffset: 0
  - stringVal: 
    intVal: 0
    floatVal: 0
    enablePrefabOffset: 0
  - stringVal: 
    intVal: 0
    floatVal: 0
    enablePrefabOffset: 0
  - stringVal: 
    intVal: 0
    floatVal: 0
    enablePrefabOffset: 0
  - stringVal: 
    intVal: 0
    floatVal: 0
    enablePrefabOffset: 0
  - stringVal: 
    intVal: 0
    floatVal: 0
    enablePrefabOffset: 0
  - stringVal: 
    intVal: 0
    floatVal: 0
    enablePrefabOffset: 0
  - stringVal: 
    intVal: 0
    floatVal: 0
    enablePrefabOffset: 0
  - stringVal: 
    intVal: 0
    floatVal: 0
    enablePrefabOffset: 0
  - stringVal: 
    intVal: 0
    floatVal: 0
    enablePrefabOffset: 0
  - stringVal: 
    intVal: 0
    floatVal: 0
    enablePrefabOffset: 0
  - stringVal: 
    intVal: 0
    floatVal: 0
    enablePrefabOffset: 0
  - stringVal: 
    intVal: 0
    floatVal: 0
    enablePrefabOffset: 0
  - stringVal: 
    intVal: 0
    floatVal: 0
    enablePrefabOffset: 0
  - stringVal: 
    intVal: 0
    floatVal: 0
    enablePrefabOffset: 0
  - stringVal: 
    intVal: 0
    floatVal: 0
    enablePrefabOffset: 0
  - stringVal: 
    intVal: 0
    floatVal: 0
    enablePrefabOffset: 0
  - stringVal: 
    intVal: 0
    floatVal: 0
    enablePrefabOffset: 0
  - stringVal: 
    intVal: 0
    floatVal: 0
    enablePrefabOffset: 0
  - stringVal: 
    intVal: 0
    floatVal: 0
    enablePrefabOffset: 0
  - stringVal: 
    intVal: 0
    floatVal: 0
    enablePrefabOffset: 0
  - stringVal: 
    intVal: 0
    floatVal: 0
    enablePrefabOffset: 0
  - stringVal: 
    intVal: 0
    floatVal: 0
    enablePrefabOffset: 0
  - stringVal: 
    intVal: 0
    floatVal: 0
    enablePrefabOffset: 0
  - stringVal: 
    intVal: 0
    floatVal: 0
    enablePrefabOffset: 0
  - stringVal: 
    intVal: 0
    floatVal: 0
    enablePrefabOffset: 0
  - stringVal: 
    intVal: 0
    floatVal: 0
    enablePrefabOffset: 0
  - stringVal: 
    intVal: 0
    floatVal: 0
    enablePrefabOffset: 0
  - stringVal: 
    intVal: 0
    floatVal: 0
    enablePrefabOffset: 0
  - stringVal: 
    intVal: 0
    floatVal: 0
    enablePrefabOffset: 0
  - stringVal: 
    intVal: 0
    floatVal: 0
    enablePrefabOffset: 0
  - stringVal: 
    intVal: 0
    floatVal: 0
    enablePrefabOffset: 0
  - stringVal: 
    intVal: 0
    floatVal: 0
    enablePrefabOffset: 0
  - stringVal: 
    intVal: 0
    floatVal: 0
    enablePrefabOffset: 0
  - stringVal: 
    intVal: 0
    floatVal: 0
    enablePrefabOffset: 0
  - stringVal: 
    intVal: 0
    floatVal: 0
    enablePrefabOffset: 0
  - stringVal: 
    intVal: 0
    floatVal: 0
    enablePrefabOffset: 0
  - stringVal: 
    intVal: 0
    floatVal: 0
    enablePrefabOffset: 0
  - stringVal: 
    intVal: 0
    floatVal: 0
    enablePrefabOffset: 0
  - stringVal: 
    intVal: 0
    floatVal: 0
    enablePrefabOffset: 0
  - stringVal: 
    intVal: 0
    floatVal: 0
    enablePrefabOffset: 0
  - stringVal: 
    intVal: 0
    floatVal: 0
    enablePrefabOffset: 0
  - stringVal: 
    intVal: 0
    floatVal: 0
    enablePrefabOffset: 0
  - stringVal: 
    intVal: 0
    floatVal: 0
    enablePrefabOffset: 0
  - stringVal: 
    intVal: 0
    floatVal: 0
    enablePrefabOffset: 0
  - stringVal: 
    intVal: 0
    floatVal: 0
    enablePrefabOffset: 0
  - stringVal: 
    intVal: 0
    floatVal: 0
    enablePrefabOffset: 0
  - stringVal: 
    intVal: 0
    floatVal: 0
    enablePrefabOffset: 0
  - stringVal: 
    intVal: 0
    floatVal: 0
    enablePrefabOffset: 0
  - stringVal: 
    intVal: 0
    floatVal: 0
    enablePrefabOffset: 0
  - stringVal: 
    intVal: 0
    floatVal: 0
    enablePrefabOffset: 0
  - stringVal: 
    intVal: 0
    floatVal: 0
    enablePrefabOffset: 0
  - stringVal: 
    intVal: 0
    floatVal: 0
    enablePrefabOffset: 0
  - stringVal: 
    intVal: 0
    floatVal: 0
    enablePrefabOffset: 0
  - stringVal: 
    intVal: 0
    floatVal: 0
    enablePrefabOffset: 0
  - stringVal: 
    intVal: 0
    floatVal: 0
    enablePrefabOffset: 0
  - stringVal: 
    intVal: 0
    floatVal: 0
    enablePrefabOffset: 0
  - stringVal: 
    intVal: 0
    floatVal: 0
    enablePrefabOffset: 0
  - stringVal: 
    intVal: 0
    floatVal: 0
    enablePrefabOffset: 0
  - stringVal: 
    intVal: 0
    floatVal: 0
    enablePrefabOffset: 0
  - stringVal: 
    intVal: 0
    floatVal: 0
    enablePrefabOffset: 0
  - stringVal: 
    intVal: 0
    floatVal: 0
    enablePrefabOffset: 0
  - stringVal: 
    intVal: 0
    floatVal: 0
    enablePrefabOffset: 0
  - stringVal: 
    intVal: 0
    floatVal: 0
    enablePrefabOffset: 0
  - stringVal: 
    intVal: 0
    floatVal: 0
    enablePrefabOffset: 0
  - stringVal: 
    intVal: 0
    floatVal: 0
    enablePrefabOffset: 0
  - stringVal: 
    intVal: 0
    floatVal: 0
    enablePrefabOffset: 0
  - stringVal: 
    intVal: 0
    floatVal: 0
    enablePrefabOffset: 0
  - stringVal: 
    intVal: 0
    floatVal: 0
    enablePrefabOffset: 0
  - stringVal: 
    intVal: 0
    floatVal: 0
    enablePrefabOffset: 0
  - stringVal: 
    intVal: 0
    floatVal: 0
    enablePrefabOffset: 0
  - stringVal: 
    intVal: 0
    floatVal: 0
    enablePrefabOffset: 0
  - stringVal: 
    intVal: 0
    floatVal: 0
    enablePrefabOffset: 0
  - stringVal: 
    intVal: 0
    floatVal: 0
    enablePrefabOffset: 0
  - stringVal: 
    intVal: 0
    floatVal: 0
    enablePrefabOffset: 0
  - stringVal: 
    intVal: 0
    floatVal: 0
    enablePrefabOffset: 0
  - stringVal: 
    intVal: 0
    floatVal: 0
    enablePrefabOffset: 0
  - stringVal: 
    intVal: 0
    floatVal: 0
    enablePrefabOffset: 0
  - stringVal: 
    intVal: 0
    floatVal: 0
    enablePrefabOffset: 0
  - stringVal: 
    intVal: 0
    floatVal: 0
    enablePrefabOffset: 0
  - stringVal: 
    intVal: 0
    floatVal: 0
    enablePrefabOffset: 0
  - stringVal: 
    intVal: 0
    floatVal: 0
    enablePrefabOffset: 0
  - stringVal: 
    intVal: 0
    floatVal: 0
    enablePrefabOffset: 0
  - stringVal: 
    intVal: 0
    floatVal: 0
    enablePrefabOffset: 0
  - stringVal: 
    intVal: 0
    floatVal: 0
    enablePrefabOffset: 0
  - stringVal: 
    intVal: 0
    floatVal: 0
    enablePrefabOffset: 0
  - stringVal: 
    intVal: 0
    floatVal: 0
    enablePrefabOffset: 0
  - stringVal: 
    intVal: 0
    floatVal: 0
    enablePrefabOffset: 0
  - stringVal: 
    intVal: 0
    floatVal: 0
    enablePrefabOffset: 0
  - stringVal: 
    intVal: 0
    floatVal: 0
    enablePrefabOffset: 0
  - stringVal: 
    intVal: 0
    floatVal: 0
    enablePrefabOffset: 0
  - stringVal: 
    intVal: 0
    floatVal: 0
    enablePrefabOffset: 0
  - stringVal: 
    intVal: 0
    floatVal: 0
    enablePrefabOffset: 0
  - stringVal: 
    intVal: 0
    floatVal: 0
    enablePrefabOffset: 0
  - stringVal: 
    intVal: 0
    floatVal: 0
    enablePrefabOffset: 0
  - stringVal: 
    intVal: 0
    floatVal: 0
    enablePrefabOffset: 0
  - stringVal: 
    intVal: 0
    floatVal: 0
    enablePrefabOffset: 0
  - stringVal: 
    intVal: 0
    floatVal: 0
    enablePrefabOffset: 0
  - stringVal: 
    intVal: 0
    floatVal: 0
    enablePrefabOffset: 0
  - stringVal: 
    intVal: 0
    floatVal: 0
    enablePrefabOffset: 0
  - stringVal: 
    intVal: 0
    floatVal: 0
    enablePrefabOffset: 0
  - stringVal: 
    intVal: 0
    floatVal: 0
    enablePrefabOffset: 0
  - stringVal: 
    intVal: 0
    floatVal: 0
    enablePrefabOffset: 0
  - stringVal: 
    intVal: 0
    floatVal: 0
    enablePrefabOffset: 0
  - stringVal: 
    intVal: 0
    floatVal: 0
    enablePrefabOffset: 0
  - stringVal: 
    intVal: 0
    floatVal: 0
    enablePrefabOffset: 0
  - stringVal: 
    intVal: 0
    floatVal: 0
    enablePrefabOffset: 0
  - stringVal: 
    intVal: 0
    floatVal: 0
    enablePrefabOffset: 0
  - stringVal: 
    intVal: 0
    floatVal: 0
    enablePrefabOffset: 0
  - stringVal: 
    intVal: 0
    floatVal: 0
    enablePrefabOffset: 0
  - stringVal: 
    intVal: 0
    floatVal: 0
    enablePrefabOffset: 0
  - stringVal: 
    intVal: 0
    floatVal: 0
    enablePrefabOffset: 0
  - stringVal: 
    intVal: 0
    floatVal: 0
    enablePrefabOffset: 0
  - stringVal: 
    intVal: 0
    floatVal: 0
    enablePrefabOffset: 0
  - stringVal: 
    intVal: 0
    floatVal: 0
    enablePrefabOffset: 0
  - stringVal: 
    intVal: 0
    floatVal: 0
    enablePrefabOffset: 0
  - stringVal: 
    intVal: 0
    floatVal: 0
    enablePrefabOffset: 0
  - stringVal: 
    intVal: 0
    floatVal: 0
    enablePrefabOffset: 0
  - stringVal: 
    intVal: 0
    floatVal: 0
    enablePrefabOffset: 0
  - stringVal: 
    intVal: 0
    floatVal: 0
    enablePrefabOffset: 0
  - stringVal: 
    intVal: 0
    floatVal: 0
    enablePrefabOffset: 0
  - stringVal: 
    intVal: 0
    floatVal: 0
    enablePrefabOffset: 0
  - stringVal: 
    intVal: 0
    floatVal: 0
    enablePrefabOffset: 0
  - stringVal: 
    intVal: 0
    floatVal: 0
    enablePrefabOffset: 0
  - stringVal: 
    intVal: 0
    floatVal: 0
    enablePrefabOffset: 0
  - stringVal: 
    intVal: 0
    floatVal: 0
    enablePrefabOffset: 0
  - stringVal: 
    intVal: 0
    floatVal: 0
    enablePrefabOffset: 0
  - stringVal: 
    intVal: 0
    floatVal: 0
    enablePrefabOffset: 0
  - stringVal: 
    intVal: 0
    floatVal: 0
    enablePrefabOffset: 0
  - stringVal: 
    intVal: 0
    floatVal: 0
    enablePrefabOffset: 0
  - stringVal: 
    intVal: 0
    floatVal: 0
    enablePrefabOffset: 0
  - stringVal: 
    intVal: 0
    floatVal: 0
    enablePrefabOffset: 0
  - stringVal: 
    intVal: 0
    floatVal: 0
    enablePrefabOffset: 0
  - stringVal: 
    intVal: 0
    floatVal: 0
    enablePrefabOffset: 0
  - stringVal: 
    intVal: 0
    floatVal: 0
    enablePrefabOffset: 0
  - stringVal: 
    intVal: 0
    floatVal: 0
    enablePrefabOffset: 0
  - stringVal: 
    intVal: 0
    floatVal: 0
    enablePrefabOffset: 0
  - stringVal: 
    intVal: 0
    floatVal: 0
    enablePrefabOffset: 0
  - stringVal: 
    intVal: 0
    floatVal: 0
    enablePrefabOffset: 0
  - stringVal: 
    intVal: 0
    floatVal: 0
    enablePrefabOffset: 0
  - stringVal: 
    intVal: 0
    floatVal: 0
    enablePrefabOffset: 0
  - stringVal: 
    intVal: 0
    floatVal: 0
    enablePrefabOffset: 0
  - stringVal: 
    intVal: 0
    floatVal: 0
    enablePrefabOffset: 0
  - stringVal: 
    intVal: 0
    floatVal: 0
    enablePrefabOffset: 0
  - stringVal: 
    intVal: 0
    floatVal: 0
    enablePrefabOffset: 0
  - stringVal: 
    intVal: 0
    floatVal: 0
    enablePrefabOffset: 0
  - stringVal: 
    intVal: 0
    floatVal: 0
    enablePrefabOffset: 0
  - stringVal: 
    intVal: 0
    floatVal: 0
    enablePrefabOffset: 0
  - stringVal: 
    intVal: 0
    floatVal: 0
    enablePrefabOffset: 0
  - stringVal: 
    intVal: 0
    floatVal: 0
    enablePrefabOffset: 0
  - stringVal: 
    intVal: 0
    floatVal: 0
    enablePrefabOffset: 0
  - stringVal: 
    intVal: 0
    floatVal: 0
    enablePrefabOffset: 0
  - stringVal: 
    intVal: 0
    floatVal: 0
    enablePrefabOffset: 0
  - stringVal: 
    intVal: 0
    floatVal: 0
    enablePrefabOffset: 0
  - stringVal: 
    intVal: 0
    floatVal: 0
    enablePrefabOffset: 0
  - stringVal: 
    intVal: 0
    floatVal: 0
    enablePrefabOffset: 0
  - stringVal: 
    intVal: 0
    floatVal: 0
    enablePrefabOffset: 0
  - stringVal: 
    intVal: 0
    floatVal: 0
    enablePrefabOffset: 0
  - stringVal: 
    intVal: 0
    floatVal: 0
    enablePrefabOffset: 0
  - stringVal: 
    intVal: 0
    floatVal: 0
    enablePrefabOffset: 0
  - stringVal: 
    intVal: 0
    floatVal: 0
    enablePrefabOffset: 0
  - stringVal: 
    intVal: 0
    floatVal: 0
    enablePrefabOffset: 0
  - stringVal: 
    intVal: 0
    floatVal: 0
    enablePrefabOffset: 0
  - stringVal: 
    intVal: 0
    floatVal: 0
    enablePrefabOffset: 0
  - stringVal: 
    intVal: 0
    floatVal: 0
    enablePrefabOffset: 0
  - stringVal: 
    intVal: 0
    floatVal: 0
    enablePrefabOffset: 0
  - stringVal: 
    intVal: 0
    floatVal: 0
    enablePrefabOffset: 0
  - stringVal: 
    intVal: 0
    floatVal: 0
    enablePrefabOffset: 0
  - stringVal: 
    intVal: 0
    floatVal: 0
    enablePrefabOffset: 0
  - stringVal: 
    intVal: 0
    floatVal: 0
    enablePrefabOffset: 0
  - stringVal: 
    intVal: 0
    floatVal: 0
    enablePrefabOffset: 0
  - stringVal: 
    intVal: 0
    floatVal: 0
    enablePrefabOffset: 0
  - stringVal: 
    intVal: 0
    floatVal: 0
    enablePrefabOffset: 0
  - stringVal: 
    intVal: 0
    floatVal: 0
    enablePrefabOffset: 0
  - stringVal: 
    intVal: 0
    floatVal: 0
    enablePrefabOffset: 0
  - stringVal: 
    intVal: 0
    floatVal: 0
    enablePrefabOffset: 0
  - stringVal: 
    intVal: 0
    floatVal: 0
    enablePrefabOffset: 0
  - stringVal: 
    intVal: 0
    floatVal: 0
    enablePrefabOffset: 0
  - stringVal: 
    intVal: 0
    floatVal: 0
    enablePrefabOffset: 0
  - stringVal: 
    intVal: 0
    floatVal: 0
    enablePrefabOffset: 0
  - stringVal: 
    intVal: 0
    floatVal: 0
    enablePrefabOffset: 0
  - stringVal: 
    intVal: 0
    floatVal: 0
    enablePrefabOffset: 0
  - stringVal: 
    intVal: 0
    floatVal: 0
    enablePrefabOffset: 0
  - stringVal: 
    intVal: 0
    floatVal: 0
    enablePrefabOffset: 0
  - stringVal: 
    intVal: 0
    floatVal: 0
    enablePrefabOffset: 0
  - stringVal: 
    intVal: 0
    floatVal: 0
    enablePrefabOffset: 0
  - stringVal: 
    intVal: 0
    floatVal: 0
    enablePrefabOffset: 0
  - stringVal: 
    intVal: 0
    floatVal: 0
    enablePrefabOffset: 0
  - stringVal: 
    intVal: 0
    floatVal: 0
    enablePrefabOffset: 0
  - stringVal: 
    intVal: 0
    floatVal: 0
    enablePrefabOffset: 0
  - stringVal: 
    intVal: 0
    floatVal: 0
    enablePrefabOffset: 0
  - stringVal: 
    intVal: 0
    floatVal: 0
    enablePrefabOffset: 0
  - stringVal: 
    intVal: 0
    floatVal: 0
    enablePrefabOffset: 0
  - stringVal: 
    intVal: 0
    floatVal: 0
    enablePrefabOffset: 0
  - stringVal: 
    intVal: 0
    floatVal: 0
    enablePrefabOffset: 0
  - stringVal: 
    intVal: 0
    floatVal: 0
    enablePrefabOffset: 0
  - stringVal: 
    intVal: 0
    floatVal: 0
    enablePrefabOffset: 0
  - stringVal: 
    intVal: 0
    floatVal: 0
    enablePrefabOffset: 0
  - stringVal: 
    intVal: 0
    floatVal: 0
    enablePrefabOffset: 0
  - stringVal: 
    intVal: 0
    floatVal: 0
    enablePrefabOffset: 0
  - stringVal: 
    intVal: 0
    floatVal: 0
    enablePrefabOffset: 0
  - stringVal: 
    intVal: 0
    floatVal: 0
    enablePrefabOffset: 0
  - stringVal: 
    intVal: 0
    floatVal: 0
    enablePrefabOffset: 0
  - stringVal: 
    intVal: 0
    floatVal: 0
    enablePrefabOffset: 0
  - stringVal: 
    intVal: 0
    floatVal: 0
    enablePrefabOffset: 0
  - stringVal: 
    intVal: 0
    floatVal: 0
    enablePrefabOffset: 0
  - stringVal: 
    intVal: 0
    floatVal: 0
    enablePrefabOffset: 0
  - stringVal: 
    intVal: 0
    floatVal: 0
    enablePrefabOffset: 0
  - stringVal: 
    intVal: 0
    floatVal: 0
    enablePrefabOffset: 0
  - stringVal: 
    intVal: 0
    floatVal: 0
    enablePrefabOffset: 0
  - stringVal: 
    intVal: 0
    floatVal: 0
    enablePrefabOffset: 0
  - stringVal: 
    intVal: 0
    floatVal: 0
    enablePrefabOffset: 0
  - stringVal: 
    intVal: 0
    floatVal: 0
    enablePrefabOffset: 0
  - stringVal: 
    intVal: 0
    floatVal: 0
    enablePrefabOffset: 0
  - stringVal: 
    intVal: 0
    floatVal: 0
    enablePrefabOffset: 0
  - stringVal: 
    intVal: 0
    floatVal: 0
    enablePrefabOffset: 0
  - stringVal: 
    intVal: 0
    floatVal: 0
    enablePrefabOffset: 0
  - stringVal: 
    intVal: 0
    floatVal: 0
    enablePrefabOffset: 0
  - stringVal: 
    intVal: 0
    floatVal: 0
    enablePrefabOffset: 0
  - stringVal: 
    intVal: 0
    floatVal: 0
    enablePrefabOffset: 0
  - stringVal: 
    intVal: 0
    floatVal: 0
    enablePrefabOffset: 0
  - stringVal: 
    intVal: 0
    floatVal: 0
    enablePrefabOffset: 0
  - stringVal: 
    intVal: 0
    floatVal: 0
    enablePrefabOffset: 0
  - stringVal: 
    intVal: 0
    floatVal: 0
    enablePrefabOffset: 0
  - stringVal: 
    intVal: 0
    floatVal: 0
    enablePrefabOffset: 0
  - stringVal: 
    intVal: 0
    floatVal: 0
    enablePrefabOffset: 0
  - stringVal: 
    intVal: 0
    floatVal: 0
    enablePrefabOffset: 0
  - stringVal: 
    intVal: 0
    floatVal: 0
    enablePrefabOffset: 0
  - stringVal: 
    intVal: 0
    floatVal: 0
    enablePrefabOffset: 0
  - stringVal: 
    intVal: 0
    floatVal: 0
    enablePrefabOffset: 0
  - stringVal: 
    intVal: 0
    floatVal: 0
    enablePrefabOffset: 0
  - stringVal: 
    intVal: 0
    floatVal: 0
    enablePrefabOffset: 0
  - stringVal: 
    intVal: 0
    floatVal: 0
    enablePrefabOffset: 0
  - stringVal: 
    intVal: 0
    floatVal: 0
    enablePrefabOffset: 0
  - stringVal: 
    intVal: 0
    floatVal: 0
    enablePrefabOffset: 0
  - stringVal: 
    intVal: 0
    floatVal: 0
    enablePrefabOffset: 0
  - stringVal: 
    intVal: 0
    floatVal: 0
    enablePrefabOffset: 0
  - stringVal: 
    intVal: 0
    floatVal: 0
    enablePrefabOffset: 0
  - stringVal: 
    intVal: 0
    floatVal: 0
    enablePrefabOffset: 0
  - stringVal: 
    intVal: 0
    floatVal: 0
    enablePrefabOffset: 0
  - stringVal: 
    intVal: 0
    floatVal: 0
    enablePrefabOffset: 0
  - stringVal: 
    intVal: 0
    floatVal: 0
    enablePrefabOffset: 0
  - stringVal: 
    intVal: 0
    floatVal: 0
    enablePrefabOffset: 0
  - stringVal: 
    intVal: 0
    floatVal: 0
    enablePrefabOffset: 0
  - stringVal: 
    intVal: 0
    floatVal: 0
    enablePrefabOffset: 0
  - stringVal: 
    intVal: 0
    floatVal: 0
    enablePrefabOffset: 0
  - stringVal: 
    intVal: 0
    floatVal: 0
    enablePrefabOffset: 0
  - stringVal: 
    intVal: 0
    floatVal: 0
    enablePrefabOffset: 0
  - stringVal: 
    intVal: 0
    floatVal: 0
    enablePrefabOffset: 0
  - stringVal: 
    intVal: 0
    floatVal: 0
    enablePrefabOffset: 0
  - stringVal: 
    intVal: 0
    floatVal: 0
    enablePrefabOffset: 0
  - stringVal: 
    intVal: 0
    floatVal: 0
    enablePrefabOffset: 0
  - stringVal: 
    intVal: 0
    floatVal: 0
    enablePrefabOffset: 0
  - stringVal: 
    intVal: 0
    floatVal: 0
    enablePrefabOffset: 0
  - stringVal: 
    intVal: 0
    floatVal: 0
    enablePrefabOffset: 0
  - stringVal: 
    intVal: 0
    floatVal: 0
    enablePrefabOffset: 0
  - stringVal: 
    intVal: 0
    floatVal: 0
    enablePrefabOffset: 0
  - stringVal: 
    intVal: 0
    floatVal: 0
    enablePrefabOffset: 0
  - stringVal: 
    intVal: 0
    floatVal: 0
    enablePrefabOffset: 0
  - stringVal: 
    intVal: 0
    floatVal: 0
    enablePrefabOffset: 0
  - stringVal: 
    intVal: 0
    floatVal: 0
    enablePrefabOffset: 0
  - stringVal: 
    intVal: 0
    floatVal: 0
    enablePrefabOffset: 0
  - stringVal: 
    intVal: 0
    floatVal: 0
    enablePrefabOffset: 0
  - stringVal: 
    intVal: 0
    floatVal: 0
    enablePrefabOffset: 0
  - stringVal: 
    intVal: 0
    floatVal: 0
    enablePrefabOffset: 0
  - stringVal: 
    intVal: 0
    floatVal: 0
    enablePrefabOffset: 0
  - stringVal: 
    intVal: 0
    floatVal: 0
    enablePrefabOffset: 0
  - stringVal: 
    intVal: 0
    floatVal: 0
    enablePrefabOffset: 0
  - stringVal: 
    intVal: 0
    floatVal: 0
    enablePrefabOffset: 0
  - stringVal: 
    intVal: 0
    floatVal: 0
    enablePrefabOffset: 0
  - stringVal: 
    intVal: 0
    floatVal: 0
    enablePrefabOffset: 0
  - stringVal: 
    intVal: 0
    floatVal: 0
    enablePrefabOffset: 0
  - stringVal: 
    intVal: 0
    floatVal: 0
    enablePrefabOffset: 0
  - stringVal: 
    intVal: 0
    floatVal: 0
    enablePrefabOffset: 0
  - stringVal: 
    intVal: 0
    floatVal: 0
    enablePrefabOffset: 0
  - stringVal: 
    intVal: 0
    floatVal: 0
    enablePrefabOffset: 0
  - stringVal: 
    intVal: 0
    floatVal: 0
    enablePrefabOffset: 0
  - stringVal: 
    intVal: 0
    floatVal: 0
    enablePrefabOffset: 0
  - stringVal: 
    intVal: 0
    floatVal: 0
    enablePrefabOffset: 0
  - stringVal: 
    intVal: 0
    floatVal: 0
    enablePrefabOffset: 0
  - stringVal: 
    intVal: 0
    floatVal: 0
    enablePrefabOffset: 0
  - stringVal: 
    intVal: 0
    floatVal: 0
    enablePrefabOffset: 0
  - stringVal: 
    intVal: 0
    floatVal: 0
    enablePrefabOffset: 0
  - stringVal: 
    intVal: 0
    floatVal: 0
    enablePrefabOffset: 0
  - stringVal: 
    intVal: 0
    floatVal: 0
    enablePrefabOffset: 0
  - stringVal: 
    intVal: 0
    floatVal: 0
    enablePrefabOffset: 0
  - stringVal: 
    intVal: 0
    floatVal: 0
    enablePrefabOffset: 0
  - stringVal: 
    intVal: 0
    floatVal: 0
    enablePrefabOffset: 0
  - stringVal: 
    intVal: 0
    floatVal: 0
    enablePrefabOffset: 0
  - stringVal: 
    intVal: 0
    floatVal: 0
    enablePrefabOffset: 0
  - stringVal: 
    intVal: 0
    floatVal: 0
    enablePrefabOffset: 0
  - stringVal: 
    intVal: 0
    floatVal: 0
    enablePrefabOffset: 0
  - stringVal: 
    intVal: 0
    floatVal: 0
    enablePrefabOffset: 0
  - stringVal: 
    intVal: 0
    floatVal: 0
    enablePrefabOffset: 0
  - stringVal: 
    intVal: 0
    floatVal: 0
    enablePrefabOffset: 0
  - stringVal: 
    intVal: 0
    floatVal: 0
    enablePrefabOffset: 0
  - stringVal: 
    intVal: 0
    floatVal: 0
    enablePrefabOffset: 0
  - stringVal: 
    intVal: 0
    floatVal: 0
    enablePrefabOffset: 0
  - stringVal: 
    intVal: 0
    floatVal: 0
    enablePrefabOffset: 0
  - stringVal: 
    intVal: 0
    floatVal: 0
    enablePrefabOffset: 0
  - stringVal: 
    intVal: 0
    floatVal: 0
    enablePrefabOffset: 0
  - stringVal: 
    intVal: 0
    floatVal: 0
    enablePrefabOffset: 0
  - stringVal: 
    intVal: 0
    floatVal: 0
    enablePrefabOffset: 0
  - stringVal: 
    intVal: 0
    floatVal: 0
    enablePrefabOffset: 0
  - stringVal: 
    intVal: 0
    floatVal: 0
    enablePrefabOffset: 0
  - stringVal: 
    intVal: 0
    floatVal: 0
    enablePrefabOffset: 0
  - stringVal: 
    intVal: 0
    floatVal: 0
    enablePrefabOffset: 0
  - stringVal: 
    intVal: 0
    floatVal: 0
    enablePrefabOffset: 0
  - stringVal: 
    intVal: 0
    floatVal: 0
    enablePrefabOffset: 0
  - stringVal: 
    intVal: 0
    floatVal: 0
    enablePrefabOffset: 0
  - stringVal: 
    intVal: 0
    floatVal: 0
    enablePrefabOffset: 0
  - stringVal: 
    intVal: 0
    floatVal: 0
    enablePrefabOffset: 0
  - stringVal: 
    intVal: 0
    floatVal: 0
    enablePrefabOffset: 0
  - stringVal: 
    intVal: 0
    floatVal: 0
    enablePrefabOffset: 0
  - stringVal: 
    intVal: 0
    floatVal: 0
    enablePrefabOffset: 0
  - stringVal: 
    intVal: 0
    floatVal: 0
    enablePrefabOffset: 0
  - stringVal: 
    intVal: 0
    floatVal: 0
    enablePrefabOffset: 0
  - stringVal: 
    intVal: 0
    floatVal: 0
    enablePrefabOffset: 0
  - stringVal: 
    intVal: 0
    floatVal: 0
    enablePrefabOffset: 0
  - stringVal: 
    intVal: 0
    floatVal: 0
    enablePrefabOffset: 0
  - stringVal: 
    intVal: 0
    floatVal: 0
    enablePrefabOffset: 0
  - stringVal: 
    intVal: 0
    floatVal: 0
    enablePrefabOffset: 0
  - stringVal: 
    intVal: 0
    floatVal: 0
    enablePrefabOffset: 0
  - stringVal: 
    intVal: 0
    floatVal: 0
    enablePrefabOffset: 0
  - stringVal: 
    intVal: 0
    floatVal: 0
    enablePrefabOffset: 0
  - stringVal: 
    intVal: 0
    floatVal: 0
    enablePrefabOffset: 0
  - stringVal: 
    intVal: 0
    floatVal: 0
    enablePrefabOffset: 0
  - stringVal: 
    intVal: 0
    floatVal: 0
    enablePrefabOffset: 0
  - stringVal: 
    intVal: 0
    floatVal: 0
    enablePrefabOffset: 0
  - stringVal: 
    intVal: 0
    floatVal: 0
    enablePrefabOffset: 0
  - stringVal: 
    intVal: 0
    floatVal: 0
    enablePrefabOffset: 0
  - stringVal: 
    intVal: 0
    floatVal: 0
    enablePrefabOffset: 0
  - stringVal: 
    intVal: 0
    floatVal: 0
    enablePrefabOffset: 0
  - stringVal: 
    intVal: 0
    floatVal: 0
    enablePrefabOffset: 0
  - stringVal: 
    intVal: 0
    floatVal: 0
    enablePrefabOffset: 0
  - stringVal: 
    intVal: 0
    floatVal: 0
    enablePrefabOffset: 0
  - stringVal: 
    intVal: 0
    floatVal: 0
    enablePrefabOffset: 0
  - stringVal: 
    intVal: 0
    floatVal: 0
    enablePrefabOffset: 0
  - stringVal: 
    intVal: 0
    floatVal: 0
    enablePrefabOffset: 0
  - stringVal: 
    intVal: 0
    floatVal: 0
    enablePrefabOffset: 0
  - stringVal: 
    intVal: 0
    floatVal: 0
    enablePrefabOffset: 0
  - stringVal: 
    intVal: 0
    floatVal: 0
    enablePrefabOffset: 0
  - stringVal: 
    intVal: 0
    floatVal: 0
    enablePrefabOffset: 0
  - stringVal: 
    intVal: 0
    floatVal: 0
    enablePrefabOffset: 0
  - stringVal: 
    intVal: 0
    floatVal: 0
    enablePrefabOffset: 0
  - stringVal: 
    intVal: 0
    floatVal: 0
    enablePrefabOffset: 0
  - stringVal: 
    intVal: 0
    floatVal: 0
    enablePrefabOffset: 0
  - stringVal: 
    intVal: 0
    floatVal: 0
    enablePrefabOffset: 0
  - stringVal: 
    intVal: 0
    floatVal: 0
    enablePrefabOffset: 0
  - stringVal: 
    intVal: 0
    floatVal: 0
    enablePrefabOffset: 0
  - stringVal: 
    intVal: 0
    floatVal: 0
    enablePrefabOffset: 0
  - stringVal: 
    intVal: 0
    floatVal: 0
    enablePrefabOffset: 0
  - stringVal: 
    intVal: 0
    floatVal: 0
    enablePrefabOffset: 0
  - stringVal: 
    intVal: 0
    floatVal: 0
    enablePrefabOffset: 0
  - stringVal: 
    intVal: 0
    floatVal: 0
    enablePrefabOffset: 0
  - stringVal: 
    intVal: 0
    floatVal: 0
    enablePrefabOffset: 0
  - stringVal: 
    intVal: 0
    floatVal: 0
    enablePrefabOffset: 0
  - stringVal: 
    intVal: 0
    floatVal: 0
    enablePrefabOffset: 0
  - stringVal: 
    intVal: 0
    floatVal: 0
    enablePrefabOffset: 0
  - stringVal: 
    intVal: 0
    floatVal: 0
    enablePrefabOffset: 0
  - stringVal: 
    intVal: 0
    floatVal: 0
    enablePrefabOffset: 0
  - stringVal: 
    intVal: 0
    floatVal: 0
    enablePrefabOffset: 0
  - stringVal: 
    intVal: 0
    floatVal: 0
    enablePrefabOffset: 0
  - stringVal: 
    intVal: 0
    floatVal: 0
    enablePrefabOffset: 0
  - stringVal: 
    intVal: 0
    floatVal: 0
    enablePrefabOffset: 0
  - stringVal: 
    intVal: 0
    floatVal: 0
    enablePrefabOffset: 0
  - stringVal: 
    intVal: 0
    floatVal: 0
    enablePrefabOffset: 0
  - stringVal: 
    intVal: 0
    floatVal: 0
    enablePrefabOffset: 0
  - stringVal: 
    intVal: 0
    floatVal: 0
    enablePrefabOffset: 0
  - stringVal: 
    intVal: 0
    floatVal: 0
    enablePrefabOffset: 0
  - stringVal: 
    intVal: 0
    floatVal: 0
    enablePrefabOffset: 0
  - stringVal: 
    intVal: 0
    floatVal: 0
    enablePrefabOffset: 0
  - stringVal: 
    intVal: 0
    floatVal: 0
    enablePrefabOffset: 0
  - stringVal: 
    intVal: 0
    floatVal: 0
    enablePrefabOffset: 0
  - stringVal: 
    intVal: 0
    floatVal: 0
    enablePrefabOffset: 0
  - stringVal: 
    intVal: 0
    floatVal: 0
    enablePrefabOffset: 0
  - stringVal: 
    intVal: 0
    floatVal: 0
    enablePrefabOffset: 0
  - stringVal: 
    intVal: 0
    floatVal: 0
    enablePrefabOffset: 0
  - stringVal: 
    intVal: 0
    floatVal: 0
    enablePrefabOffset: 0
  - stringVal: 
    intVal: 0
    floatVal: 0
    enablePrefabOffset: 0
  - stringVal: 
    intVal: 0
    floatVal: 0
    enablePrefabOffset: 0
  - stringVal: 
    intVal: 0
    floatVal: 0
    enablePrefabOffset: 0
  - stringVal: 
    intVal: 0
    floatVal: 0
    enablePrefabOffset: 0
  - stringVal: 
    intVal: 0
    floatVal: 0
    enablePrefabOffset: 0
  - stringVal: 
    intVal: 0
    floatVal: 0
    enablePrefabOffset: 0
  - stringVal: 
    intVal: 0
    floatVal: 0
    enablePrefabOffset: 0
  - stringVal: 
    intVal: 0
    floatVal: 0
    enablePrefabOffset: 0
  - stringVal: 
    intVal: 0
    floatVal: 0
    enablePrefabOffset: 0
  - stringVal: 
    intVal: 0
    floatVal: 0
    enablePrefabOffset: 0
  - stringVal: 
    intVal: 0
    floatVal: 0
    enablePrefabOffset: 0
  - stringVal: 
    intVal: 0
    floatVal: 0
    enablePrefabOffset: 0
  - stringVal: 
    intVal: 0
    floatVal: 0
    enablePrefabOffset: 0
  - stringVal: 
    intVal: 0
    floatVal: 0
    enablePrefabOffset: 0
  - stringVal: 
    intVal: 0
    floatVal: 0
    enablePrefabOffset: 0
  - stringVal: 
    intVal: 0
    floatVal: 0
    enablePrefabOffset: 0
  - stringVal: 
    intVal: 0
    floatVal: 0
    enablePrefabOffset: 0
  - stringVal: 
    intVal: 0
    floatVal: 0
    enablePrefabOffset: 0
  - stringVal: 
    intVal: 0
    floatVal: 0
    enablePrefabOffset: 0
  - stringVal: 
    intVal: 0
    floatVal: 0
    enablePrefabOffset: 0
  - stringVal: 
    intVal: 0
    floatVal: 0
    enablePrefabOffset: 0
  - stringVal: 
    intVal: 0
    floatVal: 0
    enablePrefabOffset: 0
  - stringVal: 
    intVal: 0
    floatVal: 0
    enablePrefabOffset: 0
  - stringVal: 
    intVal: 0
    floatVal: 0
    enablePrefabOffset: 0
  - stringVal: 
    intVal: 0
    floatVal: 0
    enablePrefabOffset: 0
  - stringVal: 
    intVal: 0
    floatVal: 0
    enablePrefabOffset: 0
  - stringVal: 
    intVal: 0
    floatVal: 0
    enablePrefabOffset: 0
  - stringVal: 
    intVal: 0
    floatVal: 0
    enablePrefabOffset: 0
  - stringVal: 
    intVal: 0
    floatVal: 0
    enablePrefabOffset: 0
  - stringVal: 
    intVal: 0
    floatVal: 0
    enablePrefabOffset: 0
  - stringVal: 
    intVal: 0
    floatVal: 0
    enablePrefabOffset: 0
  - stringVal: 
    intVal: 0
    floatVal: 0
    enablePrefabOffset: 0
  - stringVal: 
    intVal: 0
    floatVal: 0
    enablePrefabOffset: 0
  - stringVal: 
    intVal: 0
    floatVal: 0
    enablePrefabOffset: 0
  - stringVal: 
    intVal: 0
    floatVal: 0
    enablePrefabOffset: 0
  - stringVal: 
    intVal: 0
    floatVal: 0
    enablePrefabOffset: 0
  - stringVal: 
    intVal: 0
    floatVal: 0
    enablePrefabOffset: 0
  - stringVal: 
    intVal: 0
    floatVal: 0
    enablePrefabOffset: 0
  - stringVal: 
    intVal: 0
    floatVal: 0
    enablePrefabOffset: 0
  - stringVal: 
    intVal: 0
    floatVal: 0
    enablePrefabOffset: 0
  - stringVal: 
    intVal: 0
    floatVal: 0
    enablePrefabOffset: 0
  - stringVal: 
    intVal: 0
    floatVal: 0
    enablePrefabOffset: 0
  - stringVal: 
    intVal: 0
    floatVal: 0
    enablePrefabOffset: 0
  - stringVal: 
    intVal: 0
    floatVal: 0
    enablePrefabOffset: 0
  - stringVal: 
    intVal: 0
    floatVal: 0
    enablePrefabOffset: 0
  - stringVal: 
    intVal: 0
    floatVal: 0
    enablePrefabOffset: 0
  - stringVal: 
    intVal: 0
    floatVal: 0
    enablePrefabOffset: 0
  - stringVal: 
    intVal: 0
    floatVal: 0
    enablePrefabOffset: 0
  - stringVal: 
    intVal: 0
    floatVal: 0
    enablePrefabOffset: 0
  - stringVal: 
    intVal: 0
    floatVal: 0
    enablePrefabOffset: 0
  - stringVal: 
    intVal: 0
    floatVal: 0
    enablePrefabOffset: 0
  - stringVal: 
    intVal: 0
    floatVal: 0
    enablePrefabOffset: 0
  - stringVal: 
    intVal: 0
    floatVal: 0
    enablePrefabOffset: 0
  - stringVal: 
    intVal: 0
    floatVal: 0
    enablePrefabOffset: 0
  - stringVal: 
    intVal: 0
    floatVal: 0
    enablePrefabOffset: 0
  - stringVal: 
    intVal: 0
    floatVal: 0
    enablePrefabOffset: 0
  - stringVal: 
    intVal: 0
    floatVal: 0
    enablePrefabOffset: 0
  - stringVal: 
    intVal: 0
    floatVal: 0
    enablePrefabOffset: 0
  - stringVal: 
    intVal: 0
    floatVal: 0
    enablePrefabOffset: 0
  - stringVal: 
    intVal: 0
    floatVal: 0
    enablePrefabOffset: 0
  - stringVal: 
    intVal: 0
    floatVal: 0
    enablePrefabOffset: 0
  - stringVal: 
    intVal: 0
    floatVal: 0
    enablePrefabOffset: 0
  - stringVal: 
    intVal: 0
    floatVal: 0
    enablePrefabOffset: 0
  - stringVal: 
    intVal: 0
    floatVal: 0
    enablePrefabOffset: 0
  - stringVal: 
    intVal: 0
    floatVal: 0
    enablePrefabOffset: 0
  - stringVal: 
    intVal: 0
    floatVal: 0
    enablePrefabOffset: 0
  - stringVal: 
    intVal: 0
    floatVal: 0
    enablePrefabOffset: 0
  - stringVal: 
    intVal: 0
    floatVal: 0
    enablePrefabOffset: 0
  - stringVal: 
    intVal: 0
    floatVal: 0
    enablePrefabOffset: 0
  - stringVal: 
    intVal: 0
    floatVal: 0
    enablePrefabOffset: 0
  - stringVal: 
    intVal: 0
    floatVal: 0
    enablePrefabOffset: 0
  - stringVal: 
    intVal: 0
    floatVal: 0
    enablePrefabOffset: 0
  - stringVal: 
    intVal: 0
    floatVal: 0
    enablePrefabOffset: 0
  - stringVal: 
    intVal: 0
    floatVal: 0
    enablePrefabOffset: 0
  - stringVal: 
    intVal: 0
    floatVal: 0
    enablePrefabOffset: 0
  - stringVal: 
    intVal: 0
    floatVal: 0
    enablePrefabOffset: 0
  - stringVal: 
    intVal: 0
    floatVal: 0
    enablePrefabOffset: 0
  - stringVal: 
    intVal: 0
    floatVal: 0
    enablePrefabOffset: 0
  - stringVal: 
    intVal: 0
    floatVal: 0
    enablePrefabOffset: 0
  - stringVal: 
    intVal: 0
    floatVal: 0
    enablePrefabOffset: 0
  - stringVal: 
    intVal: 0
    floatVal: 0
    enablePrefabOffset: 0
  - stringVal: 
    intVal: 0
    floatVal: 0
    enablePrefabOffset: 0
  - stringVal: 
    intVal: 0
    floatVal: 0
    enablePrefabOffset: 0
  - stringVal: 
    intVal: 0
    floatVal: 0
    enablePrefabOffset: 0
  - stringVal: 
    intVal: 0
    floatVal: 0
    enablePrefabOffset: 0
  - stringVal: 
    intVal: 0
    floatVal: 0
    enablePrefabOffset: 0
  - stringVal: 
    intVal: 0
    floatVal: 0
    enablePrefabOffset: 0
  - stringVal: 
    intVal: 0
    floatVal: 0
    enablePrefabOffset: 0
  - stringVal: 
    intVal: 0
    floatVal: 0
    enablePrefabOffset: 0
  - stringVal: 
    intVal: 0
    floatVal: 0
    enablePrefabOffset: 0
  - stringVal: 
    intVal: 0
    floatVal: 0
    enablePrefabOffset: 0
  - stringVal: 
    intVal: 0
    floatVal: 0
    enablePrefabOffset: 0
  - stringVal: 
    intVal: 0
    floatVal: 0
    enablePrefabOffset: 0
  - stringVal: 
    intVal: 0
    floatVal: 0
    enablePrefabOffset: 0
  - stringVal: 
    intVal: 0
    floatVal: 0
    enablePrefabOffset: 0
  - stringVal: 
    intVal: 0
    floatVal: 0
    enablePrefabOffset: 0
  - stringVal: 
    intVal: 0
    floatVal: 0
    enablePrefabOffset: 0
  - stringVal: 
    intVal: 0
    floatVal: 0
    enablePrefabOffset: 0
  - stringVal: 
    intVal: 0
    floatVal: 0
    enablePrefabOffset: 0
  - stringVal: 
    intVal: 0
    floatVal: 0
    enablePrefabOffset: 0
  - stringVal: 
    intVal: 0
    floatVal: 0
    enablePrefabOffset: 0
  - stringVal: 
    intVal: 0
    floatVal: 0
    enablePrefabOffset: 0
  - stringVal: 
    intVal: 0
    floatVal: 0
    enablePrefabOffset: 0
  - stringVal: 
    intVal: 0
    floatVal: 0
    enablePrefabOffset: 0
  - stringVal: 
    intVal: 0
    floatVal: 0
    enablePrefabOffset: 0
  - stringVal: 
    intVal: 0
    floatVal: 0
    enablePrefabOffset: 0
  - stringVal: 
    intVal: 0
    floatVal: 0
    enablePrefabOffset: 0
  - stringVal: 
    intVal: 0
    floatVal: 0
    enablePrefabOffset: 0
  - stringVal: 
    intVal: 0
    floatVal: 0
    enablePrefabOffset: 0
  - stringVal: 
    intVal: 0
    floatVal: 0
    enablePrefabOffset: 0
  - stringVal: 
    intVal: 0
    floatVal: 0
    enablePrefabOffset: 0
  - stringVal: 
    intVal: 0
    floatVal: 0
    enablePrefabOffset: 0
  - stringVal: 
    intVal: 0
    floatVal: 0
    enablePrefabOffset: 0
  - stringVal: 
    intVal: 0
    floatVal: 0
    enablePrefabOffset: 0
  - stringVal: 
    intVal: 0
    floatVal: 0
    enablePrefabOffset: 0
  - stringVal: 
    intVal: 0
    floatVal: 0
    enablePrefabOffset: 0
  - stringVal: 
    intVal: 0
    floatVal: 0
    enablePrefabOffset: 0
  - stringVal: 
    intVal: 0
    floatVal: 0
    enablePrefabOffset: 0
  - stringVal: 
    intVal: 0
    floatVal: 0
    enablePrefabOffset: 0
  tileMapLayers:
  - name: Default
    hash: 1892887448
    useColor: 1
    generateCollider: 1
    z: 0
    unityLayer: 0
    sortingLayerName: 
    sortingOrder: 0
    skipMeshGeneration: 0
    physicMaterial: {fileID: 0}
    physicsMaterial2D: {fileID: 0}
  - name: Doodads
    hash: 24243981
    useColor: 1
    generateCollider: 1
    z: .100000001
    unityLayer: 0
    sortingLayerName: 
    sortingOrder: 0
    skipMeshGeneration: 0
    physicMaterial: {fileID: 0}
    physicsMaterial2D: {fileID: 0}
